90
	Energy: -1829464.0674855
Cu         0.33395        0.64665        0.07730
P          1.46714       -1.47832        0.32306
P         -2.03172        0.13099       -0.16789
O         -0.35680       -1.74128       -1.88616
N          1.66138        1.66208       -1.03215
N          0.22252        2.36970        1.10692
C          2.28019        1.32348       -2.18250
C          3.10609        2.19370       -2.87979
C          3.34055        3.48857       -2.36894
C          2.70367        3.88564       -1.19306
C          2.84896        5.18408       -0.58402
C          2.17300        5.51941        0.55183
C          1.26146        4.60124        1.18938
C          0.52275        4.89265        2.33634
C         -0.35642        3.91664        2.85793
C         -0.47953        2.69548        2.21566
C          1.10570        3.31160        0.59249
C          1.83346        2.95277       -0.54720
C          0.40462       -2.93651        0.00206
C         -0.46840       -2.87676       -1.09778
C         -1.35177       -3.91612       -1.38588
C         -1.36498       -5.04071       -0.55973
C         -0.50659       -5.12591        0.53880
C          0.37110       -4.07821        0.81674
C          2.10447       -1.67142        2.03506
C          1.60874       -0.84376        3.05458
C          2.07138       -0.97960        4.36551
C          3.03661       -1.94105        4.66921
C          3.54550       -2.76242        3.65863
C          3.08807       -2.62730        2.34787
C          2.96003       -1.70375       -0.72585
C          2.98183       -2.58980       -1.81272
C          4.12512       -2.69712       -2.60890
C          5.25397       -1.92600       -2.32657
C          5.23929       -1.04262       -1.24285
C          4.09899       -0.92685       -0.44929
C         -2.34867       -0.37566       -1.91509
C         -1.47050       -1.26038       -2.56688
C         -1.63641       -1.60607       -3.90523
C         -2.71648       -1.08422       -4.61956
C         -3.61576       -0.22099       -3.99170
C         -3.42877        0.13464       -2.65500
C         -3.03153        1.66167        0.02295
C         -2.63224        2.81333       -0.67925
C         -3.35166        4.00012       -0.55061
C         -4.46892        4.05593        0.28914
C         -4.86629        2.91877        0.99365
C         -4.15346        1.72373        0.86187
C         -2.85716       -1.12557        0.88548
C         -3.93964       -1.88690        0.41472
C         -4.58089       -2.79252        1.26091
C         -4.15187       -2.94581        2.58183
C         -3.07589       -2.19256        3.05697
C         -2.42810       -1.28927        2.21281
H          2.11152        0.31172       -2.53627
H          3.57813        1.85919       -3.79690
H          4.00533        4.17531       -2.88524
H          3.51631        5.90069       -1.05575
H          2.30347        6.50285        0.99597
H          0.61927        5.86331        2.81417
H         -0.95000        4.11433        3.74379
H         -1.17256        1.94547        2.58423
H         -2.01577       -3.84838       -2.24019
H         -2.05056       -5.85316       -0.78113
H         -0.52124       -6.00208        1.17923
H          1.02589       -4.14299        1.67870
H          0.87285       -0.07850        2.82849
H          1.68122       -0.33005        5.14348
H          3.39828       -2.04603        5.68798
H          4.30225       -3.50658        3.88907
H          3.50221       -3.26081        1.56957
H          2.11743       -3.20509       -2.03830
H          4.13161       -3.39003       -3.44534
H          6.14245       -2.01376       -2.94518
H          6.11510       -0.44182       -1.01541
H          4.09990       -0.23595        0.38883
H         -0.91978       -2.27442       -4.37134
H         -2.85024       -1.35217       -5.66303
H         -4.45901        0.18520       -4.54141
H         -4.12293        0.82286       -2.18569
H         -1.76144        2.78494       -1.32829
H         -3.03764        4.88168       -1.10191
H         -5.02546        4.98296        0.39243
H         -5.73402        2.95504        1.64592
H         -4.47628        0.84614        1.41134
H         -4.28335       -1.77600       -0.60869
H         -5.41601       -3.37738        0.88660
H         -4.65271       -3.65212        3.23757
H         -2.73564       -2.30941        4.08164
H         -1.58889       -0.71536        2.59352
