90
	Energy: -1829516.4419861
Cu         0.31921        0.42797        0.22576
P          1.27873       -1.67308        0.06359
P         -1.99728        0.51088        0.10946
O         -0.83762       -1.42808       -1.93589
N          1.18216        1.80919       -1.19338
N          1.27379        1.84119        1.53112
C          1.13335        1.77927       -2.52237
C          1.75726        2.74394       -3.33425
C          2.45642        3.77259       -2.73329
C          2.53015        3.83300       -1.32340
C          3.23558        4.86759       -0.62140
C          3.27961        4.88554        0.74074
C          2.62288        3.87069        1.51561
C          2.64363        3.85155        2.92812
C          1.98741        2.84077        3.60256
C          1.31370        1.85329        2.86134
C          1.91627        2.83237        0.85539
C          1.86895        2.81469       -0.58925
C          0.04806       -2.97377       -0.37785
C         -0.95726       -2.65960       -1.31258
C         -1.97722       -3.56188       -1.61569
C         -1.99289       -4.81008       -0.99056
C         -0.99715       -5.15563       -0.07572
C          0.01274       -4.24009        0.22512
C          2.09343       -2.35112        1.57431
C          1.48614       -2.10487        2.81789
C          2.05632       -2.58735        3.99647
C          3.25067       -3.31186        3.94971
C          3.86513       -3.55778        2.71990
C          3.28990       -3.08403        1.53788
C          2.57918       -1.80960       -1.23810
C          2.62054       -2.85701       -2.17049
C          3.63007       -2.90496       -3.13579
C          4.61275       -1.91376       -3.17535
C          4.58243       -0.86848       -2.24748
C          3.56848       -0.81219       -1.29073
C         -2.62274        0.16829       -1.60053
C         -1.96114       -0.76563       -2.42060
C         -2.33832       -0.97531       -3.74617
C         -3.41864       -0.26784       -4.27600
C         -4.10613        0.64903       -3.47940
C         -3.70573        0.86677       -2.15980
C         -2.75982        2.14439        0.51230
C         -2.07978        3.30584        0.10621
C         -2.60244        4.56909        0.38600
C         -3.80557        4.68960        1.08704
C         -4.48518        3.54188        1.50075
C         -3.96838        2.27569        1.21407
C         -2.91673       -0.66962        1.18743
C         -4.02991       -1.40608        0.75574
C         -4.68613       -2.27363        1.63326
C         -4.24476       -2.40876        2.95107
C         -3.14044       -1.67406        3.39255
C         -2.47781       -0.81559        2.51491
H          0.57805        0.95818       -2.96538
H          1.68161        2.66725       -4.41343
H          2.95027        4.53498       -3.32894
H          3.73467        5.63850       -1.20115
H          3.81459        5.67109        1.26628
H          3.17450        4.63078        3.46739
H          1.98236        2.79426        4.68604
H          0.79341        1.04678        3.36817
H         -2.74485       -3.29614       -2.33369
H         -2.78608       -5.51286       -1.22860
H         -1.00594       -6.12924        0.40463
H          0.77818       -4.50682        0.94638
H          0.55853       -1.54075        2.86289
H          1.57253       -2.39140        4.94927
H          3.70040       -3.68075        4.86722
H          4.79290       -4.12152        2.67676
H          3.77574       -3.28618        0.58874
H          1.86806       -3.63896       -2.14461
H          3.64842       -3.72072       -3.85322
H          5.39752       -1.95367       -3.92554
H          5.34323       -0.09330       -2.27272
H          3.54712        0.00971       -0.58018
H         -1.78059       -1.68564       -4.34817
H         -3.71561       -0.43201       -5.30741
H         -4.94778        1.20284       -3.88418
H         -4.23580        1.59750       -1.55808
H         -1.13965        3.22097       -0.43102
H         -2.06663        5.45738        0.06323
H         -4.20915        5.67281        1.31192
H         -5.42065        3.62849        2.04644
H         -4.50894        1.39255        1.53904
H         -4.38844       -1.30602       -0.26368
H         -5.54468       -2.84079        1.28469
H         -4.75720       -3.08332        3.63110
H         -2.79165       -1.77276        4.41662
H         -1.61915       -0.24887        2.86589
