96
	Energy: -1878803.4801821
Cu         0.44033        0.57969       -0.00903
P         -2.00377        0.83147       -0.13473
P          0.90350       -1.82753        0.34687
O         -1.32533       -1.81480       -1.43818
N          1.84979        1.07659       -1.33925
N          1.23661        2.12581        1.08497
C          2.02286        0.68957       -2.63320
C          3.13819        1.09306       -3.36077
C          4.11615        1.91851       -2.77474
C          3.92253        2.39380       -1.47910
C          4.82332        3.29971       -0.81736
C          4.54661        3.78765        0.42325
C          3.33607        3.43130        1.11562
C          2.98580        3.94612        2.36111
C          1.76851        3.55588        2.94656
C          0.92074        2.66311        2.29658
C          2.43750        2.51114        0.48481
C          2.74443        1.98266       -0.77766
C          0.95192       -0.14420       -3.27791
C         -0.37770        2.27096        2.94473
C         -2.67124        0.16083       -1.72381
C         -2.30347       -1.12826       -2.14730
C         -2.80051       -1.68526       -3.32254
C         -3.70022       -0.95323       -4.09965
C         -4.08209        0.32930       -3.70264
C         -3.56845        0.88227       -2.52815
C         -2.31935        2.63928       -0.27114
C         -3.24947        3.31969        0.52863
C         -3.40521        4.70320        0.40353
C         -2.63938        5.41774       -0.51861
C         -1.70926        4.74668       -1.31879
C         -1.54389        3.36819       -1.19234
C         -3.18725        0.18219        1.11782
C         -2.71933       -0.37451        2.31682
C         -3.61738       -0.86222        3.26903
C         -4.99099       -0.80208        3.03116
C         -5.46723       -0.26048        1.83344
C         -4.57338        0.22445        0.87954
C         -0.61284       -2.83912        0.54996
C         -1.64126       -2.66312       -0.39354
C         -2.85918       -3.33068       -0.28432
C         -3.05595       -4.19900        0.79103
C         -2.05013       -4.39668        1.74008
C         -0.83707       -3.71767        1.62012
C          1.91786       -2.68086       -0.92741
C          1.45605       -3.80200       -1.63218
C          2.27110       -4.41595       -2.58659
C          3.55056       -3.91981       -2.84251
C          4.01787       -2.80461       -2.14039
C          3.20689       -2.18472       -1.19073
C          1.87610       -2.08315        1.88723
C          2.57099       -3.28516        2.11374
C          3.29052       -3.46943        3.29433
C          3.33406       -2.45614        4.25680
C          2.65678       -1.25603        4.03510
C          1.93211       -1.06943        2.85558
H          3.24279        0.75783       -4.38695
H          5.00148        2.20879       -3.33341
H          5.72924        3.59699       -1.33920
H          5.23239        4.47473        0.91216
H          3.64240        4.65030        2.86418
H          1.46869        3.95417        3.90972
H         -0.39955        1.20246        3.18370
H         -1.22942        2.48451        2.29220
H         -0.52162        2.82172        3.87750
H         -2.46971       -2.67446       -3.62187
H         -4.09132       -1.38288       -5.01668
H         -4.77595        0.90512       -4.30708
H         -3.86275        1.88560       -2.23989
H         -3.85486        2.77916        1.24806
H         -4.12936        5.21792        1.02822
H         -2.76417        6.49238       -0.61429
H         -1.10962        5.29600       -2.03869
H         -0.81215        2.86075       -1.81552
H         -1.65566       -0.44540        2.50982
H         -3.23937       -1.29254        4.19164
H         -5.68909       -1.18226        3.77130
H         -6.53483       -0.21857        1.63858
H         -4.95913        0.63060       -0.05025
H         -3.63632       -3.17688       -1.02470
H         -4.00228       -4.72382        0.88182
H         -2.20880       -5.07461        2.57273
H         -0.06317       -3.86555        2.36532
H          0.72476       -1.04102       -2.69702
H          1.25657       -0.45267       -4.28120
H          0.02242        0.43213       -3.36606
H          0.46847       -4.20565       -1.43570
H          1.90422       -5.28551       -3.12427
H          4.18276       -4.40006       -3.58381
H          5.01302       -2.41468       -2.33345
H          3.57984       -1.31749       -0.65341
H          2.55339       -4.07520        1.36947
H          3.81989       -4.40322        3.46016
H          3.89944       -2.60094        5.17287
H          2.69445       -0.46101        4.77405
H          1.42550       -0.12600        2.68600
