90
Coordinates from ORCA-job CuphenDPEphos_ACN_T1_state
  Cu  0.41989443852980      0.58968526329157      0.15722081468969
  P   1.39673270668884     -1.51117969197689      0.40520594922074
  P   -1.87405099444889      0.08521116993849     -0.11396241559632
  O   -0.21360226846132     -1.67631963331543     -1.94540103899256
  N   1.68277124866741      1.56051713364814     -1.06775090944299
  N   0.23927396447498      2.35855796506200      1.02460980954211
  C   2.30525447720842      1.16186420069751     -2.18365823855491
  C   3.03779944464985      2.01837446550193     -2.98510205172808
  C   3.15196930053269      3.37236865051342     -2.62461189252251
  C   2.49374399043121      3.83185229145569     -1.49100640557032
  C   2.51082263505329      5.19490676198405     -1.03983600201976
  C   1.82102265701018      5.58719600710503      0.06132838203225
  C   1.02777914203991      4.66154621560071      0.82165354887361
  C   0.28712460023530      5.00066006025066      1.94753464151579
  C   -0.45611643372035      4.00423982396564      2.61024153034667
  C   -0.45592740038161      2.71719160852261      2.11462597021327
  C   1.00150935245545      3.31127727135237      0.38143268915589
  C   1.73585655684142      2.90022799028415     -0.72999304316157
  C   0.30697205347397     -2.89459838474625      0.00191754800403
  C   -0.45171058036938     -2.79057292850684     -1.16341563217546
  C   -1.37485313694556     -3.76115567092626     -1.51778894600622
  C   -1.55253889667633     -4.85513804609610     -0.68258723346339
  C   -0.81406870189158     -4.97685166101147      0.48960023340600
  C   0.11203087305158     -4.00071623358522      0.82779657299232
  C   1.94095350825004     -1.75906802456530      2.11703064331146
  C   1.43516686764087     -0.93581957842217      3.12299786423615
  C   1.83445022693752     -1.11560057853321      4.44199474919919
  C   2.74503554899178     -2.11604631817322      4.76122579378328
  C   3.26159232498314     -2.93451464021458      3.75967854898289
  C   2.86560242741242     -2.75583290888921      2.44177011028309
  C   2.89980310583018     -1.72072644919918     -0.58322450070347
  C   2.96971144302448     -2.59447413626162     -1.66582866427826
  C   4.12036240086503     -2.64451256289730     -2.44567644238209
  C   5.20427080953258     -1.82782547949485     -2.14601023919903
  C   5.13994164997245     -0.95956993977183     -1.05883544991795
  C   3.99212128527306     -0.90132118609717     -0.28412142409506
  C   -2.18675735218064     -0.29860669762285     -1.86932182988568
  C   -1.29769304036066     -1.10226689597124     -2.58937513758733
  C   -1.44092121006527     -1.31130435965830     -3.94983883951343
  C   -2.51221256642513     -0.73293008184597     -4.61947808748339
  C   -3.43079596017156      0.04213055362982     -3.92112478712164
  C   -3.26399593341402      0.26157029187042     -2.56049769884170
  C   -2.84257252186295      1.58871329261085      0.18258671073133
  C   -2.47485342508272      2.74883664611141     -0.50690015274068
  C   -3.12850557091166      3.94389169757064     -0.25814699964556
  C   -4.14842984844281      3.99707857241406      0.69003790321011
  C   -4.51516345421396      2.84784998405218      1.37861289321330
  C   -3.86453471199624      1.64367422556938      1.12661399833501
  C   -2.64025057932318     -1.21547432126755      0.87978145812279
  C   -3.64644850367582     -2.04320886873691      0.38415324482376
  C   -4.22721407132768     -2.99789040880245      1.20871652917315
  C   -3.81100861990973     -3.12751105823453      2.52960959138261
  C   -2.80670700565170     -2.30301620645927      3.02733160818457
  C   -2.21948863227782     -1.35373118122412      2.20337851416172
  H   2.22005986198532      0.11339117043813     -2.43428074703745
  H   3.52417712635547      1.63102940805210     -3.86925731477768
  H   3.73743746709922      4.05812199317545     -3.22444239977351
  H   3.09160308313356      5.91352499339653     -1.60616105447820
  H   1.85060431678027      6.62087414003924      0.38557589826856
  H   0.28297498035025      6.02309766485486      2.30408563929393
  H   -1.04224178983183      4.23500230508049      3.48863161238275
  H   -1.04325827153564      1.93917932957998      2.58574438041165
  H   -1.95579886116703     -3.65613946145085     -2.42309169631996
  H   -2.27894092705683     -5.61230245375050     -0.94827635126948
  H   -0.96380757122197     -5.82608022528335      1.14296237015333
  H   0.67240480773647     -4.08932528378149      1.74743331790815
  H   0.73843272761479     -0.14515801883019      2.87960484213130
  H   1.43899330737974     -0.47008083996973      5.21577867117009
  H   3.05885926642451     -2.25515713859821      5.78817585213441
  H   3.97518141259623     -3.71061146513426      4.00568693098192
  H   3.27627515694538     -3.38974339821746      1.66665677820123
  H   2.13479133968145     -3.23756442180016     -1.90722441374675
  H   4.16774695492795     -3.32528444648209     -3.28620611180686
  H   6.09820690690473     -1.86751558311667     -2.75555275077554
  H   5.98176975945045     -0.32199506901392     -0.82054271950723
  H   3.94210308706226     -0.21115039451769      0.54861381984398
  H   -0.71877613867282     -1.92960813183130     -4.46632009020990
  H   -2.63036269333997     -0.89435099408699     -5.68315196846826
  H   -4.27338624763495      0.48557444600426     -4.43541861276785
  H   -3.97090476152836      0.88583550711081     -2.03307603847640
  H   -1.67017362610859      2.71909275932748     -1.23042568325484
  H   -2.83644490479753      4.83761149167479     -0.79468669500687
  H   -4.65299756326112      4.93392203359599      0.89040478629680
  H   -5.30795810815408      2.88370206696272      2.11509280150406
  H   -4.15462816306966      0.75554251373054      1.67075152944244
  H   -3.97282971326095     -1.94981013658831     -0.64286053160268
  H   -5.00333554918184     -3.64303504765005      0.81705313129011
  H   -4.26497596974199     -3.87427938182788      3.16888869453964
  H   -2.47563344652283     -2.40354997632595      4.05307840546200
  H   -1.43453487620933     -0.71738796526178      2.58912192936567
