90
Coordinates from ORCA-job CuphenDPEphos_ACN_T1_state E -4358.278957094840
  Cu      0.333950      0.646650      0.077300
  P       1.467140     -1.478320      0.323060
  P      -2.031720      0.130990     -0.167890
  O      -0.356800     -1.741280     -1.886160
  N       1.661380      1.662080     -1.032150
  N       0.222520      2.369700      1.106920
  C       2.280190      1.323480     -2.182500
  C       3.106090      2.193700     -2.879790
  C       3.340550      3.488570     -2.368940
  C       2.703670      3.885640     -1.193060
  C       2.848960      5.184080     -0.584020
  C       2.173000      5.519410      0.551830
  C       1.261460      4.601240      1.189380
  C       0.522750      4.892650      2.336340
  C      -0.356420      3.916640      2.857930
  C      -0.479530      2.695480      2.215660
  C       1.105700      3.311600      0.592490
  C       1.833460      2.952770     -0.547200
  C       0.404620     -2.936510      0.002060
  C      -0.468400     -2.876760     -1.097780
  C      -1.351770     -3.916120     -1.385880
  C      -1.364980     -5.040710     -0.559730
  C      -0.506590     -5.125910      0.538800
  C       0.371100     -4.078210      0.816740
  C       2.104470     -1.671420      2.035060
  C       1.608740     -0.843760      3.054580
  C       2.071380     -0.979600      4.365510
  C       3.036610     -1.941050      4.669210
  C       3.545500     -2.762420      3.658630
  C       3.088070     -2.627300      2.347870
  C       2.960030     -1.703750     -0.725850
  C       2.981830     -2.589800     -1.812720
  C       4.125120     -2.697120     -2.608900
  C       5.253970     -1.926000     -2.326570
  C       5.239290     -1.042620     -1.242850
  C       4.098990     -0.926850     -0.449290
  C      -2.348670     -0.375660     -1.915090
  C      -1.470500     -1.260380     -2.566880
  C      -1.636410     -1.606070     -3.905230
  C      -2.716480     -1.084220     -4.619560
  C      -3.615760     -0.220990     -3.991700
  C      -3.428770      0.134640     -2.655000
  C      -3.031530      1.661670      0.022950
  C      -2.632240      2.813330     -0.679250
  C      -3.351660      4.000120     -0.550610
  C      -4.468920      4.055930      0.289140
  C      -4.866290      2.918770      0.993650
  C      -4.153460      1.723730      0.861870
  C      -2.857160     -1.125570      0.885480
  C      -3.939640     -1.886900      0.414720
  C      -4.580890     -2.792520      1.260910
  C      -4.151870     -2.945810      2.581830
  C      -3.075890     -2.192560      3.056970
  C      -2.428100     -1.289270      2.212810
  H       2.111520      0.311720     -2.536270
  H       3.578130      1.859190     -3.796900
  H       4.005330      4.175310     -2.885240
  H       3.516310      5.900690     -1.055750
  H       2.303470      6.502850      0.995970
  H       0.619270      5.863310      2.814170
  H      -0.950000      4.114330      3.743790
  H      -1.172560      1.945470      2.584230
  H      -2.015770     -3.848380     -2.240190
  H      -2.050560     -5.853160     -0.781130
  H      -0.521240     -6.002080      1.179230
  H       1.025890     -4.142990      1.678700
  H       0.872850     -0.078500      2.828490
  H       1.681220     -0.330050      5.143480
  H       3.398280     -2.046030      5.687980
  H       4.302250     -3.506580      3.889070
  H       3.502210     -3.260810      1.569570
  H       2.117430     -3.205090     -2.038300
  H       4.131610     -3.390030     -3.445340
  H       6.142450     -2.013760     -2.945180
  H       6.115100     -0.441820     -1.015410
  H       4.099900     -0.235950      0.388830
  H      -0.919780     -2.274420     -4.371340
  H      -2.850240     -1.352170     -5.663030
  H      -4.459010      0.185200     -4.541410
  H      -4.122930      0.822860     -2.185690
  H      -1.761440      2.784940     -1.328290
  H      -3.037640      4.881680     -1.101910
  H      -5.025460      4.982960      0.392430
  H      -5.734020      2.955040      1.645920
  H      -4.476280      0.846140      1.411340
  H      -4.283350     -1.776000     -0.608690
  H      -5.416010     -3.377380      0.886600
  H      -4.652710     -3.652120      3.237570
  H      -2.735640     -2.309410      4.081640
  H      -1.588890     -0.715360      2.593520
90
Coordinates from ORCA-job CuphenDPEphos_ACN_T1_state E -4358.285165331493
  Cu      0.338524      0.643030      0.058350
  P       1.450478     -1.477813      0.325959
  P      -2.011855      0.117664     -0.182167
  O      -0.349994     -1.721246     -1.886065
  N       1.680832      1.645130     -1.038524
  N       0.202426      2.377247      1.055984
  C       2.325095      1.288906     -2.160625
  C       3.163510      2.145987     -2.848944
  C       3.377279      3.447839     -2.358275
  C       2.711835      3.860773     -1.209948
  C       2.835125      5.166645     -0.623619
  C       2.132773      5.517043      0.485284
  C       1.215734      4.607036      1.115616
  C       0.448123      4.913994      2.233251
  C      -0.434260      3.944134      2.749820
  C      -0.528199      2.713074      2.132277
  C       1.084671      3.310979      0.543251
  C       1.836551      2.938290     -0.570793
  C       0.381606     -2.916091      0.003779
  C      -0.481113     -2.845542     -1.094480
  C      -1.379104     -3.864582     -1.378954
  C      -1.413362     -4.980940     -0.551261
  C      -0.569360     -5.071350      0.551748
  C       0.320931     -4.041350      0.826776
  C       2.058292     -1.665706      2.035470
  C       1.518353     -0.860744      3.040328
  C       1.953249     -0.992011      4.355180
  C       2.932969     -1.927095      4.673360
  C       3.481301     -2.728630      3.673724
  C       3.049689     -2.598449      2.359821
  C       2.936654     -1.708110     -0.707748
  C       2.962548     -2.600515     -1.779611
  C       4.095596     -2.693184     -2.582472
  C       5.206251     -1.897392     -2.320671
  C       5.182700     -1.004272     -1.251280
  C       4.052512     -0.904945     -0.451644
  C      -2.334692     -0.369152     -1.919934
  C      -1.455878     -1.240368     -2.570461
  C      -1.619232     -1.581943     -3.903252
  C      -2.697955     -1.063468     -4.611890
  C      -3.597841     -0.209064     -3.982421
  C      -3.413287      0.138822     -2.649301
  C      -2.998039      1.635462      0.048872
  C      -2.565295      2.802377     -0.589850
  C      -3.255449      3.992842     -0.411326
  C      -4.376190      4.033092      0.416884
  C      -4.802495      2.877463      1.062696
  C      -4.116065      1.679734      0.881458
  C      -2.800704     -1.151413      0.858511
  C      -3.913300     -1.876360      0.424799
  C      -4.522122     -2.790492      1.276805
  C      -4.018011     -2.995472      2.558877
  C      -2.902088     -2.283017      2.989602
  C      -2.294284     -1.364220      2.142135
  H       2.169353      0.273088     -2.498936
  H       3.658880      1.797379     -3.744194
  H       4.049430      4.126948     -2.867967
  H       3.506772      5.876624     -1.091831
  H       2.244996      6.506654      0.912452
  H       0.524223      5.892118      2.691515
  H      -1.051365      4.153202      3.612447
  H      -1.221688      1.963680      2.493626
  H      -2.036234     -3.790038     -2.233800
  H      -2.101799     -5.785460     -0.776302
  H      -0.603198     -5.939872      1.196090
  H       0.964188     -4.108314      1.692825
  H       0.763080     -0.123258      2.800536
  H       1.529282     -0.360734      5.125674
  H       3.273459     -2.029039      5.696203
  H       4.247155     -3.454415      3.916371
  H       3.489333     -3.217631      1.588868
  H       2.108424     -3.229083     -1.991382
  H       4.107913     -3.391525     -3.409795
  H       6.087188     -1.972058     -2.945712
  H       6.043039     -0.381223     -1.042170
  H       4.040415     -0.200613      0.370500
  H      -0.903742     -2.246303     -4.369482
  H      -2.831525     -1.327782     -5.652917
  H      -4.440852      0.194188     -4.528205
  H      -4.108120      0.817756     -2.175364
  H      -1.686151      2.783799     -1.222129
  H      -2.915001      4.890158     -0.912321
  H      -4.910664      4.963778      0.560257
  H      -5.670233      2.902825      1.709773
  H      -4.455208      0.787870      1.389844
  H      -4.312136     -1.723436     -0.569061
  H      -5.394017     -3.337608      0.940530
  H      -4.492882     -3.709860      3.219617
  H      -2.503244     -2.440866      3.983536
  H      -1.424721     -0.816567      2.483363
90
Coordinates from ORCA-job CuphenDPEphos_ACN_T1_state E -4358.286663758390
  Cu      0.345387      0.639333      0.046575
  P       1.434951     -1.475972      0.325429
  P      -1.985951      0.102583     -0.196157
  O      -0.339794     -1.720016     -1.897947
  N       1.699184      1.636818     -1.033579
  N       0.184190      2.374515      1.027603
  C       2.363160      1.275432     -2.138394
  C       3.210104      2.129836     -2.816377
  C       3.406906      3.435306     -2.332639
  C       2.715408      3.853739     -1.203990
  C       2.813935      5.166139     -0.631208
  C       2.084888      5.522440      0.455989
  C       1.165805      4.610810      1.077274
  C       0.372746      4.921099      2.174069
  C      -0.502952      3.946045      2.688142
  C      -0.565875      2.706832      2.086244
  C       1.061650      3.309227      0.519499
  C       1.836657      2.932259     -0.574685
  C       0.355086     -2.895561      0.013036
  C      -0.495495     -2.826471     -1.090744
  C      -1.414865     -3.827391     -1.359427
  C      -1.480101     -4.923873     -0.510938
  C      -0.647899     -5.010705      0.598755
  C       0.263489     -3.998333      0.857838
  C       2.028280     -1.657068      2.030047
  C       1.482388     -0.845031      3.022144
  C       1.901878     -0.972579      4.339978
  C       2.873030     -1.909381      4.671192
  C       3.428576     -2.715834      3.681976
  C       3.011475     -2.589772      2.365163
  C       2.910749     -1.713497     -0.701126
  C       2.929523     -2.596478     -1.777016
  C       4.058267     -2.684624     -2.583029
  C       5.170755     -1.896158     -2.316254
  C       5.154133     -1.015412     -1.238794
  C       4.027463     -0.918715     -0.438219
  C      -2.313183     -0.361872     -1.927977
  C      -1.437890     -1.228294     -2.583002
  C      -1.600794     -1.557386     -3.916204
  C      -2.674942     -1.027564     -4.619545
  C      -3.569818     -0.174294     -3.984944
  C      -3.385555      0.160217     -2.650613
  C      -2.966289      1.606997      0.059896
  C      -2.563739      2.763988     -0.609934
  C      -3.238553      3.955963     -0.405915
  C      -4.313919      4.005677      0.477210
  C      -4.714816      2.856633      1.146723
  C      -4.043846      1.656746      0.939069
  C      -2.743527     -1.179813      0.831078
  C      -3.889110     -1.867282      0.433864
  C      -4.470748     -2.793180      1.288552
  C      -3.902570     -3.048496      2.532508
  C      -2.752710     -2.372413      2.924361
  C      -2.175753     -1.437740      2.076446
  H       2.215287      0.258755     -2.475346
  H       3.723060      1.777035     -3.699385
  H       4.083275      4.114960     -2.834967
  H       3.488249      5.876667     -1.093758
  H       2.177326      6.517853      0.873220
  H       0.427782      5.905364      2.620901
  H      -1.136880      4.155822      3.537620
  H      -1.249901      1.948909      2.445853
  H      -2.066882     -3.754187     -2.217474
  H      -2.181483     -5.719109     -0.726621
  H      -0.707712     -5.863723      1.260866
  H       0.896455     -4.060000      1.731243
  H       0.735923     -0.104667      2.768365
  H       1.474377     -0.335570      5.103097
  H       3.203361     -2.007611      5.697208
  H       4.188398     -3.443334      3.936056
  H       3.452671     -3.215207      1.600925
  H       2.072357     -3.218971     -1.991584
  H       4.066476     -3.374347     -3.416963
  H       6.049142     -1.967350     -2.944414
  H       6.016534     -0.397025     -1.027056
  H       4.016435     -0.220042      0.388093
  H      -0.889693     -2.222359     -4.387280
  H      -2.809381     -1.281887     -5.662471
  H      -4.408876      0.238634     -4.528699
  H      -4.075427      0.839516     -2.170364
  H      -1.715795      2.736024     -1.281624
  H      -2.919483      4.848947     -0.927194
  H      -4.835881      4.939326      0.642218
  H      -5.549651      2.889916      1.834645
  H      -4.359258      0.769301      1.468862
  H      -4.333931     -1.676309     -0.533146
  H      -5.373649     -3.308507      0.986671
  H      -4.355996     -3.774137      3.195241
  H      -2.304639     -2.570590      3.889168
  H      -1.282179     -0.912520      2.383652
90
Coordinates from ORCA-job CuphenDPEphos_ACN_T1_state E -4358.287095387635
  Cu      0.346336      0.629462      0.056602
  P       1.431689     -1.477802      0.330900
  P      -1.970506      0.085146     -0.208261
  O      -0.322386     -1.747847     -1.898524
  N       1.709611      1.633969     -1.001574
  N       0.158210      2.359684      1.034952
  C       2.394080      1.277615     -2.095399
  C       3.246154      2.138232     -2.759833
  C       3.423653      3.445918     -2.274359
  C       2.707688      3.860222     -1.159305
  C       2.780950      5.176117     -0.589968
  C       2.027155      5.528850      0.481486
  C       1.108455      4.608275      1.090551
  C       0.292990      4.912248      2.172824
  C      -0.575290      3.926694      2.679536
  C      -0.610259      2.683362      2.082797
  C       1.030450      3.303255      0.536613
  C       1.826967      2.931516     -0.543558
  C       0.343480     -2.891008      0.041007
  C      -0.501270     -2.832786     -1.067413
  C      -1.440043     -3.821180     -1.314128
  C      -1.531198     -4.893394     -0.437525
  C      -0.701353     -4.971377      0.674724
  C       0.230448     -3.972039      0.911062
  C       2.054898     -1.650477      2.023403
  C       1.565931     -0.800631      3.014517
  C       2.011473     -0.923315      4.324303
  C       2.953494     -1.891673      4.648520
  C       3.455313     -2.733572      3.660258
  C       3.012072     -2.612606      2.351394
  C       2.886712     -1.717990     -0.717323
  C       2.888686     -2.603254     -1.791825
  C       4.002464     -2.688024     -2.619070
  C       5.116447     -1.894307     -2.374751
  C       5.117290     -1.012032     -1.298326
  C       4.005699     -0.918453     -0.476602
  C      -2.284893     -0.372497     -1.941486
  C      -1.411273     -1.246419     -2.590573
  C      -1.567230     -1.574426     -3.924846
  C      -2.632359     -1.036307     -4.635673
  C      -3.526473     -0.177739     -4.007378
  C      -3.349846      0.155379     -2.671541
  C      -2.944779      1.589627      0.043338
  C      -2.539908      2.741489     -0.635397
  C      -3.197989      3.941112     -0.423195
  C      -4.257341      4.004612      0.478416
  C      -4.659050      2.862072      1.158333
  C      -4.004964      1.654035      0.942444
  C      -2.738237     -1.195756      0.807998
  C      -3.888138     -1.871444      0.401968
  C      -4.482737     -2.795205      1.249684
  C      -3.927489     -3.055559      2.498535
  C      -2.777501     -2.387506      2.902228
  C      -2.185962     -1.457128      2.059553
  H       2.258170      0.260812     -2.437070
  H       3.776676      1.788776     -3.633968
  H       4.102560      4.131265     -2.765886
  H       3.455885      5.892342     -1.043218
  H       2.099685      6.527352      0.895792
  H       0.327015      5.899633      2.615360
  H      -1.224495      4.130870      3.518989
  H      -1.286038      1.915936      2.437412
  H      -2.090867     -3.754844     -2.173965
  H      -2.252232     -5.676630     -0.632143
  H      -0.782425     -5.805243      1.358893
  H       0.858203     -4.023719      1.788876
  H       0.848292     -0.031510      2.764706
  H       1.628589     -0.257029      5.086383
  H       3.304541     -1.986016      5.668203
  H       4.193831     -3.484697      3.909165
  H       3.410786     -3.266585      1.587443
  H       2.030199     -3.229851     -1.988650
  H       3.998105     -3.379026     -3.452230
  H       5.982868     -1.962631     -3.019974
  H       5.981394     -0.389781     -1.104608
  H       4.006420     -0.217305      0.347851
  H      -0.858487     -2.245585     -4.391116
  H      -2.761740     -1.289877     -5.679630
  H      -4.359332      0.239882     -4.557433
  H      -4.039555      0.837777     -2.195634
  H      -1.702134      2.702332     -1.319644
  H      -2.877951      4.829855     -0.951514
  H      -4.765473      4.944781      0.650800
  H      -5.480984      2.907148      1.861222
  H      -4.318944      0.771919      1.482354
  H      -4.322273     -1.676970     -0.569595
  H      -5.385205     -3.305973      0.938721
  H      -4.391073     -3.780297      3.155544
  H      -2.339348     -2.590708      3.870757
  H      -1.295207     -0.934531      2.375253
90
Coordinates from ORCA-job CuphenDPEphos_ACN_T1_state E -4358.287394365851
  Cu      0.350245      0.612622      0.043812
  P       1.425815     -1.481095      0.320760
  P      -1.947064      0.060993     -0.207404
  O      -0.304457     -1.757592     -1.935816
  N       1.706961      1.618617     -1.017118
  N       0.140222      2.342825      1.006885
  C       2.392486      1.266551     -2.112988
  C       3.237321      2.133050     -2.781846
  C       3.402068      3.445028     -2.302130
  C       2.675941      3.859201     -1.192542
  C       2.724188      5.183995     -0.638865
  C       1.954568      5.539344      0.421369
  C       1.047423      4.610226      1.036947
  C       0.219964      4.912924      2.111504
  C      -0.627185      3.915867      2.632817
  C      -0.633686      2.662386      2.053570
  C       0.997224      3.295549      0.500317
  C       1.804980      2.923106     -0.571584
  C       0.341308     -2.891005      0.020136
  C      -0.496963     -2.832742     -1.094625
  C      -1.457812     -3.803462     -1.329797
  C      -1.582633     -4.855910     -0.433130
  C      -0.755150     -4.938963      0.681065
  C       0.200813     -3.958654      0.905156
  C       2.035781     -1.656303      2.016512
  C       1.520690     -0.832941      3.019963
  C       1.964059     -0.963442      4.330776
  C       2.929580     -1.912405      4.645504
  C       3.456525     -2.728281      3.647752
  C       3.015528     -2.600091      2.337913
  C       2.894264     -1.711808     -0.704782
  C       2.905521     -2.554714     -1.814722
  C       4.039502     -2.632688     -2.616539
  C       5.166116     -1.878152     -2.309829
  C       5.161052     -1.043333     -1.195367
  C       4.029621     -0.955026     -0.399255
  C      -2.273986     -0.382694     -1.940214
  C      -1.397701     -1.242053     -2.610841
  C      -1.560599     -1.549714     -3.949988
  C      -2.634393     -1.006826     -4.645587
  C      -3.531983     -0.166184     -3.997548
  C      -3.349252      0.147366     -2.656791
  C      -2.905402      1.569625      0.055165
  C      -2.513648      2.712797     -0.650596
  C      -3.140760      3.925221     -0.415864
  C      -4.154160      4.012701      0.536557
  C      -4.541018      2.881891      1.244910
  C      -3.918086      1.660242      1.006855
  C      -2.714295     -1.214577      0.811722
  C      -3.882762     -1.868293      0.416924
  C      -4.480050     -2.790561      1.264653
  C      -3.917977     -3.062530      2.508933
  C      -2.755525     -2.412248      2.906180
  C      -2.155585     -1.489764      2.059144
  H       2.262265      0.249960     -2.457322
  H       3.770880      1.784703     -3.655188
  H       4.073948      4.135873     -2.796931
  H       3.391072      5.905294     -1.097245
  H       2.005704      6.545309      0.821993
  H       0.231689      5.908046      2.539017
  H      -1.281459      4.118020      3.469452
  H      -1.289225      1.884265      2.422259
  H      -2.109748     -3.731364     -2.189278
  H      -2.334362     -5.615086     -0.608549
  H      -0.864505     -5.756298      1.381836
  H       0.819402     -4.009252      1.789659
  H       0.784561     -0.078150      2.779505
  H       1.560894     -0.318665      5.101627
  H       3.278108     -2.013013      5.666032
  H       4.213557     -3.463638      3.890370
  H       3.434082     -3.233121      1.566031
  H       2.039138     -3.153794     -2.057763
  H       4.041836     -3.288845     -3.478113
  H       6.047771     -1.941391     -2.935608
  H       6.036351     -0.453847     -0.952649
  H       4.025757     -0.290638      0.455607
  H      -0.852405     -2.211353     -4.431605
  H      -2.769719     -1.245060     -5.692970
  H      -4.371996      0.253011     -4.536460
  H      -4.041074      0.817117     -2.166108
  H      -1.708989      2.654587     -1.373405
  H      -2.832303      4.805816     -0.965441
  H      -4.636874      4.963315      0.727316
  H      -5.326765      2.947029      1.987263
  H      -4.218514      0.787631      1.570651
  H      -4.321334     -1.665888     -0.551823
  H      -5.386515     -3.296019      0.955896
  H      -4.383951     -3.787269      3.165216
  H      -2.310583     -2.628712      3.869282
  H      -1.254547     -0.979639      2.366972
90
Coordinates from ORCA-job CuphenDPEphos_ACN_T1_state E -4358.287635562487
  Cu      0.357082      0.609474      0.053127
  P       1.430592     -1.484125      0.317050
  P      -1.938825      0.061492     -0.201495
  O      -0.297191     -1.767361     -1.939568
  N       1.709335      1.621927     -1.008374
  N       0.154548      2.332140      1.031194
  C       2.390680      1.277278     -2.110069
  C       3.226732      2.150128     -2.781572
  C       3.388014      3.461785     -2.299258
  C       2.667562      3.868626     -1.183084
  C       2.715212      5.191241     -0.624234
  C       1.954767      5.538611      0.445446
  C       1.058167      4.602745      1.066207
  C       0.247468      4.894819      2.156241
  C      -0.584996      3.890052      2.685961
  C      -0.599046      2.641530      2.096453
  C       1.003882      3.291232      0.520961
  C       1.803623      2.926631     -0.560271
  C       0.342818     -2.895252      0.020908
  C      -0.498247     -2.836280     -1.091572
  C      -1.468639     -3.799384     -1.319609
  C      -1.602639     -4.844627     -0.415525
  C      -0.771742     -4.929701      0.696357
  C       0.194865     -3.957497      0.912095
  C       2.042990     -1.663038      2.013995
  C       1.528771     -0.842486      3.020115
  C       1.973842     -0.975760      4.330299
  C       2.937861     -1.927465      4.642718
  C       3.459620     -2.745272      3.643397
  C       3.017105     -2.613931      2.334299
  C       2.900266     -1.713491     -0.713168
  C       2.921108     -2.584577     -1.801508
  C       4.049448     -2.659449     -2.611702
  C       5.161076     -1.870690     -2.337612
  C       5.146186     -1.004635     -1.247137
  C       4.020618     -0.921159     -0.441805
  C      -2.264818     -0.387550     -1.936441
  C      -1.389691     -1.245529     -2.610579
  C      -1.552767     -1.549165     -3.950923
  C      -2.626321     -1.004065     -4.645523
  C      -3.523547     -0.165235     -3.994523
  C      -3.339903      0.144300     -2.652799
  C      -2.900305      1.574860      0.044131
  C      -2.533291      2.703817     -0.697783
  C      -3.171873      3.914698     -0.486480
  C      -4.175646      4.015037      0.475319
  C      -4.542195      2.897690      1.215248
  C      -3.906960      1.677684      1.001434
  C      -2.716769     -1.206440      0.823645
  C      -3.855962     -1.895584      0.402454
  C      -4.459689     -2.817134      1.246525
  C      -3.933393     -3.054011      2.513711
  C      -2.798091     -2.371519      2.935960
  C      -2.189969     -1.451424      2.091704
  H       2.264476      0.260906     -2.456590
  H       3.756568      1.806860     -3.659059
  H       4.054655      4.156741     -2.795110
  H       3.376068      5.916678     -1.084507
  H       2.007335      6.542223      0.851393
  H       0.263246      5.886601      2.591065
  H      -1.223040      4.082931      3.537017
  H      -1.243425      1.858343      2.473432
  H      -2.120892     -3.726136     -2.178574
  H      -2.366347     -5.593740     -0.581446
  H      -0.886808     -5.741929      1.401940
  H       0.816309     -4.009849      1.794571
  H       0.787997     -0.090084      2.783282
  H       1.571477     -0.332660      5.102779
  H       3.286848     -2.030757      5.662719
  H       4.213338     -3.484427      3.884226
  H       3.431444     -3.248473      1.561669
  H       2.066234     -3.208709     -2.020869
  H       4.058759     -3.338841     -3.454857
  H       6.038009     -1.931028     -2.970072
  H       6.009484     -0.388445     -1.029554
  H       4.009698     -0.233133      0.393825
  H      -0.844833     -2.209779     -4.434000
  H      -2.761314     -1.238731     -5.693638
  H      -4.363504      0.255974     -4.531685
  H      -4.031167      0.813719     -2.160672
  H      -1.739077      2.636242     -1.430986
  H      -2.880973      4.784039     -1.062617
  H      -4.668085      4.964230      0.646601
  H      -5.322190      2.971781      1.962635
  H      -4.194754      0.815115      1.586717
  H      -4.266570     -1.720658     -0.583422
  H      -5.340587     -3.352496      0.915330
  H      -4.404708     -3.777291      3.167615
  H      -2.380132     -2.561228      3.916454
  H      -1.305478     -0.920941      2.417606
90
Coordinates from ORCA-job CuphenDPEphos_ACN_T1_state E -4358.287747238618
  Cu      0.362020      0.608447      0.053808
  P       1.431814     -1.483453      0.315423
  P      -1.931124      0.060774     -0.198428
  O      -0.290450     -1.771852     -1.945098
  N       1.707809      1.622424     -1.015814
  N       0.163340      2.330776      1.033142
  C       2.384154      1.278843     -2.121227
  C       3.209536      2.154480     -2.801409
  C       3.366755      3.468650     -2.324601
  C       2.652905      3.874278     -1.203850
  C       2.700021      5.197650     -0.647430
  C       1.948386      5.543245      0.428960
  C       1.061296      4.604813      1.058878
  C       0.261277      4.894878      2.157071
  C      -0.563141      3.887959      2.694751
  C      -0.580565      2.639739      2.105461
  C       1.005802      3.292674      0.515035
  C       1.798179      2.929560     -0.572481
  C       0.339336     -2.894057      0.022744
  C      -0.499450     -2.835954     -1.091438
  C      -1.472369     -3.796552     -1.319051
  C      -1.612566     -4.838046     -0.411499
  C      -0.784990     -4.921482      0.703094
  C       0.185100     -3.952467      0.917529
  C       2.040986     -1.661483      2.015505
  C       1.539195     -0.826404      3.014771
  C       1.980529     -0.957757      4.326284
  C       2.928182     -1.923255      4.646760
  C       3.437218     -2.756663      3.653619
  C       2.998802     -2.626310      2.343205
  C       2.903700     -1.717225     -0.715228
  C       2.926218     -2.600168     -1.793638
  C       4.052787     -2.679668     -2.605539
  C       5.161267     -1.882393     -2.343863
  C       5.144166     -1.002892     -1.264155
  C       4.020197     -0.915434     -0.457180
  C      -2.257225     -0.388873     -1.936000
  C      -1.382047     -1.243561     -2.613427
  C      -1.543377     -1.540446     -3.955505
  C      -2.617452     -0.994505     -4.648560
  C      -3.517778     -0.162447     -3.993085
  C      -3.334578      0.141254     -2.650189
  C      -2.893823      1.576730      0.048650
  C      -2.474939      2.731866     -0.621598
  C      -3.118254      3.938426     -0.400457
  C      -4.180812      4.007858      0.499155
  C      -4.598858      2.864371      1.168093
  C      -3.957073      1.649554      0.945399
  C      -2.712174     -1.206099      0.829178
  C      -3.830091     -1.920555      0.393704
  C      -4.433595     -2.843796      1.236059
  C      -3.926884     -3.058864      2.515026
  C      -2.810557     -2.353112      2.950152
  C      -2.202245     -1.431762      2.107558
  H       2.263980      0.259668     -2.462152
  H       3.735286      1.811235     -3.681275
  H       4.026935      4.165268     -2.826449
  H       3.354009      5.924927     -1.114308
  H       2.000772      6.547436      0.833183
  H       0.277896      5.886967      2.590922
  H      -1.192679      4.079195      3.552392
  H      -1.219699      1.855381      2.489374
  H      -2.119610     -3.725448     -2.181703
  H      -2.379169     -5.584277     -0.576360
  H      -0.902863     -5.732081      1.409943
  H       0.807653     -4.006509      1.799309
  H       0.809442     -0.064920      2.771922
  H       1.587831     -0.302664      5.093485
  H       3.274744     -2.024681      5.667672
  H       4.177480     -3.507251      3.900283
  H       3.402825     -3.273251      1.575612
  H       2.073045     -3.229991     -2.004391
  H       4.062993     -3.368963     -3.440466
  H       6.036916     -1.946096     -2.977580
  H       6.004633     -0.379699     -1.055996
  H       4.008323     -0.217622      0.370265
  H      -0.833747     -2.197503     -4.440648
  H      -2.750878     -1.223934     -5.697925
  H      -4.359469      0.258408     -4.527570
  H      -4.028363      0.806061     -2.155310
  H      -1.637033      2.688402     -1.306193
  H      -2.786768      4.827910     -0.921031
  H      -4.678310      4.953005      0.677322
  H      -5.423988      2.913784      1.867372
  H      -4.286386      0.766028      1.474893
  H      -4.225978     -1.761822     -0.600536
  H      -5.297786     -3.398834      0.893450
  H      -4.399048     -3.781804      3.168516
  H      -2.408449     -2.524181      3.940537
  H      -1.329320     -0.886848      2.442736
90
Coordinates from ORCA-job CuphenDPEphos_ACN_T1_state E -4358.287861870839
  Cu      0.364742      0.602881      0.057077
  P       1.428940     -1.486237      0.315086
  P      -1.922663      0.055599     -0.197366
  O      -0.281296     -1.777004     -1.951983
  N       1.708270      1.620900     -1.011382
  N       0.161610      2.322730      1.037551
  C       2.385961      1.280326     -2.116336
  C       3.205656      2.159744     -2.797706
  C       3.355446      3.475131     -2.322606
  C       2.640015      3.877527     -1.202049
  C       2.680508      5.201227     -0.646718
  C       1.927963      5.543511      0.429701
  C       1.046514      4.600959      1.060606
  C       0.244215      4.888049      2.157695
  C      -0.576226      3.877900      2.694803
  C      -0.586299      2.629271      2.107113
  C       0.998570      3.288290      0.518597
  C       1.791620      2.928724     -0.569321
  C       0.334917     -2.894692      0.022457
  C      -0.495651     -2.839191     -1.097157
  C      -1.465674     -3.800708     -1.330282
  C      -1.611620     -4.840260     -0.421971
  C      -0.792966     -4.920124      0.699085
  C       0.175002     -3.950648      0.918373
  C       2.040091     -1.666151      2.013824
  C       1.536527     -0.836544      3.015787
  C       1.980268     -0.970004      4.325893
  C       2.933517     -1.931081      4.641553
  C       3.446628     -2.757043      3.644635
  C       3.005845     -2.624217      2.335657
  C       2.898806     -1.720530     -0.716359
  C       2.914604     -2.592021     -1.803354
  C       4.041342     -2.673128     -2.614237
  C       5.156671     -1.889533     -2.341832
  C       5.146072     -1.022190     -1.252465
  C       4.021757     -0.932837     -0.446922
  C      -2.248967     -0.393986     -1.934615
  C      -1.372943     -1.243727     -2.616269
  C      -1.532317     -1.531276     -3.960240
  C      -2.605637     -0.981785     -4.650967
  C      -3.507307     -0.155131     -3.991008
  C      -3.325260      0.140140     -2.646558
  C      -2.882383      1.573646      0.047336
  C      -2.478996      2.719614     -0.646298
  C      -3.121362      3.927151     -0.430656
  C      -4.166791      4.006904      0.487639
  C      -4.569723      2.872034      1.179509
  C      -3.929236      1.656020      0.961548
  C      -2.706255     -1.204948      0.834650
  C      -3.817439     -1.928186      0.398632
  C      -4.425229     -2.842321      1.247344
  C      -3.929810     -3.038477      2.533327
  C      -2.820644     -2.322504      2.969273
  C      -2.208034     -1.410660      2.120294
  H       2.272726      0.259784     -2.455455
  H       3.732956      1.818403     -3.677236
  H       4.011426      4.174919     -2.825223
  H       3.329754      5.931680     -1.114964
  H       1.974395      6.548416      0.832525
  H       0.254357      5.880931      2.589577
  H      -1.208704      4.067082      3.550591
  H      -1.223925      1.842572      2.489258
  H      -2.105946     -3.731985     -2.198134
  H      -2.375905     -5.587637     -0.591266
  H      -0.915088     -5.729526      1.406382
  H       0.792766     -4.003732      1.803310
  H       0.803878     -0.077654      2.776391
  H       1.585734     -0.319221      5.095631
  H       3.282688     -2.033571      5.661313
  H       4.191983     -3.503687      3.887298
  H       3.413095     -3.265072      1.564747
  H       2.055565     -3.211077     -2.022151
  H       4.046429     -3.353171     -3.456587
  H       6.032653     -1.954424     -2.974722
  H       6.011848     -0.409531     -1.035970
  H       4.014803     -0.244503      0.388458
  H      -0.821544     -2.184549     -4.448532
  H      -2.737392     -1.204049     -5.701941
  H      -4.348746      0.268637     -4.523314
  H      -4.019228      0.802251     -2.148533
  H      -1.654281      2.668243     -1.345874
  H      -2.801832      4.809903     -0.969563
  H      -4.662776      4.953365      0.662200
  H      -5.381701      2.929157      1.893268
  H      -4.245944      0.779318      1.509395
  H      -4.205337     -1.782811     -0.600590
  H      -5.284444     -3.404540      0.904407
  H      -4.405908     -3.753626      3.192267
  H      -2.428101     -2.477525      3.965996
  H      -1.341821     -0.856895      2.456210
90
Coordinates from ORCA-job CuphenDPEphos_ACN_T1_state E -4358.287924600422
  Cu      0.372130      0.596207      0.058429
  P       1.423219     -1.489452      0.315136
  P      -1.906977      0.050594     -0.191824
  O      -0.268882     -1.774827     -1.970370
  N       1.709042      1.615015     -1.018315
  N       0.168058      2.316801      1.034815
  C       2.385530      1.272947     -2.123375
  C       3.193106      2.155184     -2.815294
  C       3.331787      3.475639     -2.351119
  C       2.618136      3.878963     -1.229744
  C       2.649488      5.206737     -0.683789
  C       1.900484      5.549258      0.394909
  C       1.031710      4.602849      1.037281
  C       0.231721      4.890671      2.136017
  C      -0.578409      3.877461      2.682806
  C      -0.579998      2.624963      2.103663
  C       0.993193      3.286191      0.504834
  C       1.782688      2.926584     -0.585628
  C       0.327409     -2.894026      0.011713
  C      -0.489981     -2.837877     -1.117437
  C      -1.454658     -3.801027     -1.364592
  C      -1.611238     -4.841188     -0.459039
  C      -0.808417     -4.919496      0.673388
  C       0.156176     -3.949767      0.905580
  C       2.021610     -1.676861      2.017732
  C       1.504731     -0.858958      3.022128
  C       1.938254     -1.001047      4.334733
  C       2.894410     -1.959081      4.650170
  C       3.420545     -2.773591      3.650621
  C       2.989830     -2.632281      2.339276
  C       2.899942     -1.723624     -0.705573
  C       2.928667     -2.607443     -1.782085
  C       4.060218     -2.687875     -2.586207
  C       5.166845     -1.890815     -2.317488
  C       5.142931     -1.011149     -1.238250
  C       4.014093     -0.923121     -0.439061
  C      -2.238757     -0.392030     -1.929659
  C      -1.362281     -1.230751     -2.623820
  C      -1.522712     -1.499003     -3.971662
  C      -2.597592     -0.941994     -4.653698
  C      -3.500683     -0.127291     -3.980815
  C      -3.317030      0.149570     -2.632885
  C      -2.863576      1.570196      0.060097
  C      -2.474704      2.711733     -0.648048
  C      -3.115498      3.919371     -0.429330
  C      -4.144187      4.003782      0.507266
  C      -4.532365      2.873019      1.214045
  C      -3.893851      1.656636      0.992351
  C      -2.687097     -1.207134      0.845283
  C      -3.786473     -1.947598      0.410209
  C      -4.391375     -2.856644      1.266653
  C      -3.906070     -3.028279      2.559744
  C      -2.808875     -2.293525      2.995072
  C      -2.197830     -1.388629      2.138011
  H       2.282188      0.248362     -2.453527
  H       3.719527      1.812213     -3.694805
  H       3.977986      4.178332     -2.862348
  H       3.288815      5.940065     -1.161216
  H       1.939588      6.557387      0.790526
  H       0.234689      5.886766      2.560615
  H      -1.210087      4.067325      3.539121
  H      -1.211850      1.836252      2.491577
  H      -2.083408     -3.732083     -2.240961
  H      -2.371951     -5.589704     -0.639139
  H      -0.939716     -5.728736      1.379318
  H       0.762843     -4.002949      1.798143
  H       0.770341     -0.102209      2.783169
  H       1.533551     -0.358953      5.106570
  H       3.235523     -2.068350      5.671986
  H       4.167981     -3.518244      3.893211
  H       3.406843     -3.264409      1.566270
  H       2.076403     -3.236577     -1.997768
  H       4.075740     -3.377690     -3.420504
  H       6.046601     -1.954939     -2.945263
  H       6.001975     -0.388005     -1.024610
  H       3.996550     -0.225329      0.388376
  H      -0.810972     -2.144162     -4.469353
  H      -2.729662     -1.149271     -5.707724
  H      -4.344134      0.301945     -4.505595
  H      -4.011239      0.804034     -2.125220
  H      -1.662547      2.656987     -1.362073
  H      -2.807101      4.799060     -0.979739
  H      -4.638141      4.950825      0.684676
  H      -5.331075      2.933484      1.942436
  H      -4.198020      0.783508      1.552710
  H      -4.166975     -1.820438     -0.594384
  H      -5.240970     -3.433496      0.924073
  H      -4.380397     -3.738887      3.224889
  H      -2.424275     -2.428803      3.997846
  H      -1.341280     -0.820288      2.473420
90
Coordinates from ORCA-job CuphenDPEphos_ACN_T1_state E -4358.287966045143
  Cu      0.378115      0.597143      0.064385
  P       1.417998     -1.488350      0.320040
  P      -1.897137      0.052622     -0.186178
  O      -0.259827     -1.769561     -1.977793
  N       1.706128      1.616471     -1.025200
  N       0.179875      2.319556      1.039362
  C       2.374885      1.272799     -2.134346
  C       3.169018      2.156708     -2.839344
  C       3.302319      3.480847     -2.384399
  C       2.597408      3.885174     -1.257901
  C       2.626217      5.215756     -0.718924
  C       1.887517      5.558561      0.366668
  C       1.031442      4.610092      1.022681
  C       0.240654      4.899278      2.127764
  C      -0.559818      3.884813      2.686190
  C      -0.561233      2.630099      2.112358
  C       0.994873      3.290809      0.496917
  C       1.775619      2.930568     -0.599785
  C       0.317556     -2.888946      0.011200
  C      -0.487454     -2.833232     -1.126514
  C      -1.444787     -3.799991     -1.387405
  C      -1.608224     -4.842281     -0.485570
  C      -0.820459     -4.917706      0.657597
  C       0.138248     -3.945249      0.902576
  C       2.012032     -1.681846      2.024265
  C       1.503529     -0.858218      3.027863
  C       1.933602     -1.005856      4.341004
  C       2.878054     -1.975023      4.657336
  C       3.396474     -2.794729      3.658002
  C       2.969088     -2.648116      2.346170
  C       2.896717     -1.729069     -0.697072
  C       2.921635     -2.605581     -1.779441
  C       4.057352     -2.693420     -2.576883
  C       5.171640     -1.911837     -2.294792
  C       5.151237     -1.040268     -1.208938
  C       4.018266     -0.944482     -0.416533
  C      -2.228815     -0.384458     -1.925787
  C      -1.352393     -1.217237     -2.626226
  C      -1.512449     -1.473628     -3.976507
  C      -2.586772     -0.910930     -4.654509
  C      -3.490965     -0.103118     -3.974625
  C      -3.307712      0.161892     -2.624405
  C      -2.858067      1.570429      0.070691
  C      -2.473153      2.714973     -0.633731
  C      -3.120906      3.918764     -0.414160
  C      -4.153045      3.995728      0.519130
  C      -4.537344      2.861313      1.222251
  C      -3.891862      1.648820      0.999688
  C      -2.672944     -1.208569      0.850513
  C      -3.742135     -1.984098      0.403609
  C      -4.342821     -2.894569      1.262061
  C      -3.882984     -3.032326      2.568176
  C      -2.814849     -2.262056      3.015083
  C      -2.207769     -1.356292      2.156554
  H       2.276460      0.245274     -2.456560
  H       3.689224      1.812333     -3.721980
  H       3.937435      4.185477     -2.906632
  H       3.255357      5.950839     -1.206993
  H       1.925129      6.568606      0.757441
  H       0.243255      5.897077      2.548209
  H      -1.184929      4.075596      3.547075
  H      -1.187514      1.840983      2.508095
  H      -2.061855     -3.732085     -2.272142
  H      -2.361618     -5.595165     -0.677660
  H      -0.957831     -5.727777      1.361395
  H       0.734474     -3.997203      1.802180
  H       0.779663     -0.091871      2.787996
  H       1.535354     -0.359190      5.112343
  H       3.216239     -2.088863      5.679585
  H       4.135200     -3.547842      3.901035
  H       3.380189     -3.284360      1.573420
  H       2.063524     -3.223007     -2.005035
  H       4.070049     -3.377223     -3.416119
  H       6.054728     -1.981798     -2.917175
  H       6.016193     -0.429180     -0.984770
  H       4.003888     -0.253402      0.416575
  H      -0.800042     -2.114434     -4.478787
  H      -2.717854     -1.108849     -5.710411
  H      -4.335017      0.329835     -4.495294
  H      -4.002917      0.810954     -2.111399
  H      -1.658464      2.666343     -1.345289
  H      -2.815012      4.801233     -0.961452
  H      -4.652509      4.939767      0.696875
  H      -5.338604      2.915568      1.948282
  H      -4.193174      0.773069      1.557239
  H      -4.102876     -1.883187     -0.611174
  H      -5.169904     -3.498077      0.910509
  H      -4.353953     -3.743764      3.234733
  H      -2.449959     -2.369986      4.028485
  H      -1.374120     -0.760853      2.501796
90
Coordinates from ORCA-job CuphenDPEphos_ACN_T1_state E -4358.288018452011
  Cu      0.380870      0.599201      0.071579
  P       1.411575     -1.488068      0.329233
  P      -1.894626      0.057541     -0.176904
  O      -0.255006     -1.754223     -1.980228
  N       1.702935      1.611938     -1.033598
  N       0.192011      2.328410      1.038527
  C       2.365906      1.259246     -2.143447
  C       3.152104      2.139044     -2.862739
  C       3.282829      3.468373     -2.422071
  C       2.585223      3.880976     -1.293865
  C       2.614205      5.216655     -0.767280
  C       1.884388      5.566590      0.322153
  C       1.037440      4.621165      0.994503
  C       0.255629      4.918196      2.104033
  C      -0.537193      3.906547      2.678463
  C      -0.540880      2.646981      2.115111
  C       0.999763      3.297158      0.480446
  C       1.772308      2.929631     -0.619829
  C       0.312851     -2.887082      0.004852
  C      -0.480562     -2.827843     -1.140632
  C      -1.425093     -3.801791     -1.421679
  C      -1.588767     -4.854060     -0.531439
  C      -0.814056     -4.931832      0.620570
  C       0.132819     -3.952693      0.885117
  C       1.995761     -1.689691      2.036203
  C       1.490513     -0.862718      3.039018
  C       1.913156     -1.016944      4.354002
  C       2.847147     -1.995522      4.672776
  C       3.363155     -2.817687      3.674120
  C       2.943271     -2.664797      2.360386
  C       2.895752     -1.728536     -0.680343
  C       2.929563     -2.609775     -1.758882
  C       4.070097     -2.696527     -2.549902
  C       5.179663     -1.908920     -2.265579
  C       5.149946     -1.032102     -1.184105
  C       4.012315     -0.937284     -0.397874
  C      -2.227104     -0.373051     -1.917822
  C      -1.348777     -1.199056     -2.624266
  C      -1.509487     -1.446949     -3.976308
  C      -2.586182     -0.883264     -4.649715
  C      -3.492905     -0.083405     -3.963591
  C      -3.309310      0.173554     -2.611731
  C      -2.858464      1.572777      0.087168
  C      -2.470827      2.722713     -0.607013
  C      -3.121332      3.924374     -0.382315
  C      -4.158914      3.993312      0.545472
  C      -4.545897      2.853292      1.238382
  C      -3.897755      1.642973      1.011004
  C      -2.664898     -1.209557      0.857026
  C      -3.723044     -1.997872      0.407106
  C      -4.317818     -2.913055      1.265344
  C      -3.862741     -3.042895      2.573737
  C      -2.805355     -2.259334      3.024066
  C      -2.204691     -1.348577      2.166440
  H       2.268715      0.228042     -2.454400
  H       3.667837      1.787872     -3.745393
  H       3.910711      4.170508     -2.956371
  H       3.236509      5.949480     -1.267466
  H       1.922830      6.580036      0.704090
  H       0.260068      5.919430      2.516346
  H      -1.155485      4.103274      3.542975
  H      -1.162325      1.860306      2.522699
  H      -2.032903     -3.730685     -2.312629
  H      -2.331747     -5.613114     -0.739585
  H      -0.952429     -5.748835      1.316194
  H       0.719360     -4.006964      1.790914
  H       0.775789     -0.088259      2.797139
  H       1.517150     -0.368113      5.124749
  H       3.179262     -2.114707      5.696463
  H       4.094434     -3.577535      3.918972
  H       3.352740     -3.302988      1.588330
  H       2.075249     -3.231824     -1.986332
  H       4.090014     -3.384091     -3.385989
  H       6.066352     -1.978042     -2.883017
  H       6.011189     -0.416271     -0.958331
  H       3.990672     -0.242220      0.431812
  H      -0.795546     -2.082558     -4.483121
  H      -2.717492     -1.074828     -5.706811
  H      -4.339208      0.349800     -4.480481
  H      -4.006831      0.816199     -2.093932
  H      -1.651767      2.680383     -1.313928
  H      -2.813156      4.811119     -0.921457
  H      -4.660832      4.935428      0.726792
  H      -5.351619      2.901255      1.959977
  H      -4.201684      0.762947      1.560438
  H      -4.079811     -1.903725     -0.609785
  H      -5.136456     -3.526485      0.911039
  H      -4.328327     -3.758639      3.239550
  H      -2.443580     -2.361115      4.039286
  H      -1.379410     -0.743611      2.515147
90
Coordinates from ORCA-job CuphenDPEphos_ACN_T1_state E -4358.288055928464
  Cu      0.385809      0.603843      0.084313
  P       1.398951     -1.488267      0.348176
  P      -1.891766      0.068287     -0.161841
  O      -0.250960     -1.725684     -1.978690
  N       1.700276      1.602063     -1.046789
  N       0.211624      2.346835      1.032871
  C       2.353813      1.232195     -2.156660
  C       3.130112      2.102421     -2.898665
  C       3.258945      3.439896     -2.482299
  C       2.572137      3.869077     -1.353520
  C       2.602051      5.213667     -0.849558
  C       1.884204      5.578672      0.243063
  C       1.049121      4.641287      0.941478
  C       0.278450      4.954530      2.054541
  C      -0.504888      3.950136      2.654636
  C      -0.511320      2.681439      2.111634
  C       1.010399      3.308590      0.449887
  C       1.771437      2.925774     -0.653462
  C       0.302235     -2.883088     -0.002101
  C      -0.476189     -2.813554     -1.157084
  C      -1.406175     -3.793249     -1.466859
  C      -1.571680     -4.861115     -0.595707
  C      -0.813869     -4.947912      0.567069
  C       0.119234     -3.963371      0.859973
  C       1.966940     -1.702491      2.058886
  C       1.463845     -0.872456      3.060829
  C       1.876454     -1.034839      4.378243
  C       2.797847     -2.024444      4.700272
  C       3.311805     -2.849368      3.702734
  C       2.902307     -2.688561      2.386425
  C       2.891086     -1.728570     -0.650125
  C       2.940300     -2.618880     -1.720967
  C       4.087231     -2.701418     -2.503639
  C       5.187036     -1.900104     -2.219516
  C       5.141748     -1.013546     -1.146502
  C       3.998016     -0.922977     -0.368143
  C      -2.224251     -0.347425     -1.905701
  C      -1.344295     -1.166091     -2.619318
  C      -1.505388     -1.403121     -3.973583
  C      -2.583953     -0.836571     -4.641596
  C      -3.492781     -0.045171     -3.948292
  C      -3.309257      0.201492     -2.594281
  C      -2.860581      1.576727      0.120256
  C      -2.476277      2.734875     -0.562731
  C      -3.129640      3.932854     -0.324805
  C      -4.165927      3.989509      0.605110
  C      -4.549123      2.841395      1.287179
  C      -3.898483      1.634716      1.046907
  C      -2.648956     -1.214872      0.861645
  C      -3.674448     -2.036351      0.396415
  C      -4.255160     -2.967952      1.247502
  C      -3.817782     -3.081889      2.563090
  C      -2.792197     -2.265150      3.029251
  C      -2.206253     -1.337593      2.179732
  H       2.256041      0.195629     -2.449206
  H       3.639092      1.738288     -3.780033
  H       3.877355      4.135624     -3.035775
  H       3.215140      5.940665     -1.369322
  H       1.923520      6.598424      0.607880
  H       0.284316      5.962507      2.450229
  H      -1.115190      4.159497      3.521882
  H      -1.126850      1.899996      2.538178
  H      -2.001475     -3.713742     -2.365549
  H      -2.301983     -5.625777     -0.827253
  H      -0.954684     -5.775970      1.249071
  H       0.692663     -4.024728      1.773641
  H       0.759054     -0.089323      2.816408
  H       1.481971     -0.384193      5.148294
  H       3.121458     -2.150470      5.725920
  H       4.034035     -3.617064      3.950175
  H       3.310973     -3.328454      1.615300
  H       2.093698     -3.251193     -1.949070
  H       4.119348     -3.396015     -3.333572
  H       6.078385     -1.965946     -2.830675
  H       5.995468     -0.387152     -0.920954
  H       3.963881     -0.220078      0.454536
  H      -0.790242     -2.033037     -4.485887
  H      -2.715325     -1.019802     -5.700220
  H      -4.340694      0.389765     -4.461171
  H      -4.008952      0.837095     -2.070858
  H      -1.658251      2.701884     -1.271232
  H      -2.824482      4.825710     -0.855589
  H      -4.670369      4.928356      0.796431
  H      -5.354251      2.880018      2.010065
  H      -4.200399      0.748355      1.587409
  H      -4.016551     -1.955822     -0.626704
  H      -5.048911     -3.606483      0.880960
  H      -4.271483     -3.811050      3.222621
  H      -2.443307     -2.354679      4.050154
  H      -1.405030     -0.708026      2.541791
90
Coordinates from ORCA-job CuphenDPEphos_ACN_T1_state E -4358.288064738925
  Cu      0.389142      0.602089      0.091659
  P       1.391608     -1.492224      0.357394
  P      -1.889964      0.072305     -0.149759
  O      -0.247202     -1.706377     -1.979333
  N       1.697464      1.591416     -1.056372
  N       0.222214      2.353371      1.026916
  C       2.343047      1.212364     -2.167617
  C       3.112214      2.077016     -2.923581
  C       3.240668      3.418734     -2.521125
  C       2.561094      3.857429     -1.391756
  C       2.590265      5.207296     -0.902003
  C       1.879213      5.581349      0.191979
  C       1.052202      4.648714      0.906211
  C       0.288006      4.971000      2.021141
  C      -0.487597      3.970420      2.637513
  C      -0.494021      2.696265      2.107334
  C       1.014740      3.310796      0.429014
  C       1.769020      2.918761     -0.675745
  C       0.301569     -2.885914     -0.014487
  C      -0.468038     -2.807615     -1.174416
  C      -1.386867     -3.791203     -1.504621
  C      -1.550734     -4.871534     -0.648983
  C      -0.802271     -4.966858      0.519205
  C       0.120175     -3.978666      0.832224
  C       1.944809     -1.715672      2.070765
  C       1.448691     -0.877009      3.068978
  C       1.852038     -1.043739      4.388631
  C       2.756900     -2.046586      4.716594
  C       3.263739     -2.880447      3.722895
  C       2.863695     -2.715169      2.404261
  C       2.891583     -1.724676     -0.630353
  C       2.953602     -2.610528     -1.704092
  C       4.106329     -2.683069     -2.479234
  C       5.199286     -1.876358     -2.184690
  C       5.141652     -0.994476     -1.108439
  C       3.992126     -0.913763     -0.337730
  C      -2.225413     -0.336284     -1.894137
  C      -1.343007     -1.146522     -2.614970
  C      -1.505477     -1.375245     -3.970455
  C      -2.588130     -0.809712     -4.632519
  C      -3.499298     -0.027317     -3.932402
  C      -3.314250      0.211863     -2.577307
  C      -2.857432      1.578537      0.140413
  C      -2.477790      2.737251     -0.544737
  C      -3.128523      3.935343     -0.300610
  C      -4.157014      3.991673      0.637854
  C      -4.535556      2.843217      1.321840
  C      -3.887866      1.636265      1.075235
  C      -2.640566     -1.214979      0.872234
  C      -3.648037     -2.054872      0.400933
  C      -4.221731     -2.992388      1.250315
  C      -3.796586     -3.092837      2.570733
  C      -2.790230     -2.256300      3.044025
  C      -2.210665     -1.323668      2.196049
  H       2.244087      0.173350     -2.450635
  H       3.615561      1.705792     -3.805199
  H       3.852749      4.110712     -3.086205
  H       3.197122      5.930841     -1.433734
  H       1.917612      6.605056      0.545631
  H       0.292599      5.983300      2.405673
  H      -1.092680      4.186846      3.506645
  H      -1.103924      1.916846      2.545956
  H      -1.975676     -3.704477     -2.406840
  H      -2.273230     -5.638786     -0.895889
  H      -0.941928     -5.804573      1.189513
  H       0.687412     -4.047290      1.749295
  H       0.757264     -0.083538      2.819451
  H       1.463562     -0.386167      5.155819
  H       3.073298     -2.176046      5.744054
  H       3.973198     -3.658386      3.975163
  H       3.266850     -3.361935      1.636004
  H       2.112267     -3.246697     -1.940966
  H       4.148214     -3.373967     -3.311796
  H       6.095004     -1.934359     -2.790216
  H       5.990106     -0.363934     -0.874799
  H       3.947849     -0.213772      0.486939
  H      -0.788548     -1.998500     -4.488349
  H      -2.720810     -0.986717     -5.692035
  H      -4.350123      0.406875     -4.441047
  H      -4.015523      0.841436     -2.048711
  H      -1.665661      2.704306     -1.259904
  H      -2.827246      4.828432     -0.833162
  H      -4.659350      4.930587      0.834283
  H      -5.335018      2.881841      2.050964
  H      -4.186672      0.749301      1.616604
  H      -3.980647     -1.984858     -0.625993
  H      -5.000012     -3.646445      0.878095
  H      -4.244922     -3.826485      3.228960
  H      -2.451217     -2.334702      4.069133
  H      -1.424615     -0.678340      2.563985
90
Coordinates from ORCA-job CuphenDPEphos_ACN_T1_state E -4358.288079027140
  Cu      0.391233      0.601731      0.102670
  P       1.383215     -1.496493      0.371626
  P      -1.891426      0.078806     -0.138754
  O      -0.245364     -1.690601     -1.970698
  N       1.697446      1.579538     -1.059386
  N       0.229989      2.361844      1.022336
  C       2.336703      1.190627     -2.170719
  C       3.102730      2.048182     -2.937881
  C       3.233647      3.393296     -2.547873
  C       2.559522      3.842491     -1.419503
  C       2.590188      5.196926     -0.942661
  C       1.883827      5.581161      0.150833
  C       1.059956      4.655313      0.877410
  C       0.300246      4.987404      1.992489
  C      -0.472235      3.992456      2.621807
  C      -0.481183      2.713635      2.103004
  C       1.021247      3.312919      0.413082
  C       1.771226      2.910290     -0.690902
  C       0.297269     -2.888622     -0.015601
  C      -0.466067     -2.801785     -1.179008
  C      -1.379964     -3.785218     -1.523287
  C      -1.545051     -4.874052     -0.679059
  C      -0.803178     -4.977915      0.492729
  C       0.114189     -3.989886      0.820027
  C       1.929413     -1.725211      2.085673
  C       1.431043     -0.886979      3.083040
  C       1.832248     -1.053361      4.403273
  C       2.737603     -2.055313      4.732641
  C       3.247097     -2.888625      3.739823
  C       2.849260     -2.723381      2.420600
  C       2.886315     -1.721288     -0.613132
  C       2.952901     -2.597795     -1.693996
  C       4.106619     -2.659907     -2.468549
  C       5.196525     -1.852130     -2.166249
  C       5.135026     -0.979907     -1.082252
  C       3.984424     -0.909624     -0.312455
  C      -2.224538     -0.322973     -1.884968
  C      -1.340125     -1.130076     -2.607607
  C      -1.500107     -1.354277     -3.963998
  C      -2.582817     -0.788033     -4.625454
  C      -3.495838     -0.009260     -3.923952
  C      -3.313010      0.225785     -2.567901
  C      -2.859445      1.581931      0.157433
  C      -2.487240      2.740880     -0.532077
  C      -3.138972      3.937691     -0.285308
  C      -4.160968      3.992988      0.660367
  C      -4.532516      2.844646      1.348119
  C      -3.884137      1.638763      1.098429
  C      -2.636978     -1.215621      0.877257
  C      -3.634395     -2.063595      0.398755
  C      -4.197589     -3.014605      1.239985
  C      -3.772951     -3.120073      2.560018
  C      -2.777661     -2.274753      3.041257
  C      -2.207850     -1.329471      2.200953
  H       2.235034      0.149612     -2.445297
  H       3.601488      1.669327     -3.818833
  H       3.843311      4.079992     -3.121937
  H       3.194674      5.915561     -1.483640
  H       1.923229      6.608301      0.494270
  H       0.304976      6.003582      2.366680
  H      -1.073466      4.216829      3.491568
  H      -1.088940      1.937624      2.550909
  H      -1.964182     -3.692135     -2.427744
  H      -2.264545     -5.640641     -0.936515
  H      -0.943487     -5.822575      1.154089
  H       0.677236     -4.065682      1.739112
  H       0.739149     -0.094495      2.832015
  H       1.442244     -0.396050      5.169888
  H       3.052744     -2.184186      5.760549
  H       3.956975     -3.665738      3.993355
  H       3.255024     -3.368986      1.652679
  H       2.113610     -3.234289     -1.937833
  H       4.151615     -3.343330     -3.307080
  H       6.092871     -1.901817     -2.771562
  H       5.981194     -0.348643     -0.842428
  H       3.936645     -0.216312      0.517700
  H      -0.781726     -1.974511     -4.483452
  H      -2.714042     -0.961612     -5.685708
  H      -4.346478      0.425296     -4.432569
  H      -4.015512      0.853119     -2.038109
  H      -1.680386      2.708618     -1.253194
  H      -2.843609      4.830660     -0.821302
  H      -4.663935      4.930997      0.859423
  H      -5.327415      2.882654      2.082222
  H      -4.178369      0.751261      1.641497
  H      -3.966620     -1.989692     -0.627910
  H      -4.966460     -3.675955      0.861279
  H      -4.213351     -3.863987      3.212050
  H      -2.439581     -2.356480      4.066384
  H      -1.429634     -0.677786      2.574594
90
Coordinates from ORCA-job CuphenDPEphos_ACN_T1_state E -4358.288087514724
  Cu      0.393658      0.598786      0.108886
  P       1.381260     -1.500489      0.377362
  P      -1.890188      0.079840     -0.134263
  O      -0.242534     -1.689382     -1.966223
  N       1.698218      1.572991     -1.058715
  N       0.231155      2.361492      1.020933
  C       2.333821      1.182431     -2.171438
  C       3.096712      2.038666     -2.942950
  C       3.228500      3.384613     -2.556418
  C       2.557100      3.836080     -1.427410
  C       2.587842      5.191643     -0.954056
  C       1.883219      5.578488      0.139562
  C       1.060650      4.654359      0.869588
  C       0.302061      4.988674      1.984717
  C      -0.469605      3.995214      2.617216
  C      -0.479040      2.715276      2.101454
  C       1.022121      3.310792      0.408798
  C       1.771097      2.905191     -0.694798
  C       0.296322     -2.892182     -0.013184
  C      -0.466653     -2.801799     -1.176749
  C      -1.382030     -3.782940     -1.523030
  C      -1.548724     -4.873165     -0.681058
  C      -0.807202     -4.980644      0.490637
  C       0.111488     -3.994827      0.820181
  C       1.928383     -1.730934      2.090739
  C       1.426825     -0.896678      3.089623
  C       1.830092     -1.062626      4.409181
  C       2.741110     -2.060054      4.736319
  C       3.253986     -2.889431      3.741905
  C       2.853974     -2.724393      2.423470
  C       2.884545     -1.719267     -0.608807
  C       2.950633     -2.589376     -1.694586
  C       4.102866     -2.645476     -2.471660
  C       5.192285     -1.838197     -2.166595
  C       5.131810     -0.973129     -1.076708
  C       3.982620     -0.909052     -0.304637
  C      -2.220670     -0.320249     -1.881802
  C      -1.335787     -1.126715     -2.604428
  C      -1.492996     -1.347859     -3.961429
  C      -2.573997     -0.779406     -4.623953
  C      -3.487755     -0.001508     -3.922533
  C      -3.307149      0.230564     -2.565789
  C      -2.857800      1.583114      0.161289
  C      -2.486361      2.742207     -0.528349
  C      -3.139059      3.938384     -0.282426
  C      -4.161593      3.993392      0.662849
  C      -4.532515      2.845097      1.350750
  C      -3.883012      1.639794      1.101554
  C      -2.636960     -1.215122      0.880287
  C      -3.626974     -2.068755      0.396296
  C      -4.190675     -3.021761      1.234642
  C      -3.774207     -3.123554      2.557596
  C      -2.786997     -2.272118      3.044435
  C      -2.216451     -1.325015      2.206783
  H       2.232607      0.140731     -2.443565
  H       3.592542      1.658190     -3.824839
  H       3.836575      4.070150     -3.133515
  H       3.191065      5.909136     -1.497928
  H       1.922582      6.606611      0.480021
  H       0.306185      6.005959      2.355872
  H      -1.069705      4.221681      3.487211
  H      -1.086816      1.940140      2.550884
  H      -1.965585     -3.688109     -2.427712
  H      -2.269565     -5.637932     -0.940043
  H      -0.948532     -5.826752      1.149893
  H       0.674607     -4.073530      1.738978
  H       0.730186     -0.108109      2.840284
  H       1.437541     -0.408377      5.177095
  H       3.058231     -2.188298      5.763674
  H       3.968057     -3.663199      3.993777
  H       3.262563     -3.366480      1.654011
  H       2.111675     -3.225477     -1.940599
  H       4.147160     -3.323811     -3.314329
  H       6.087462     -1.882927     -2.773971
  H       5.977770     -0.342601     -0.834322
  H       3.935637     -0.221224      0.530144
  H      -0.774019     -1.967295     -4.480958
  H      -2.703258     -0.950498     -5.684825
  H      -4.337241      0.434454     -4.431843
  H      -4.010046      0.857415     -2.035890
  H      -1.679041      2.710389     -1.248938
  H      -2.844079      4.831443     -0.818449
  H      -4.665148      4.931119      0.861634
  H      -5.327636      2.882830      2.084609
  H      -4.176409      0.752060      1.644655
  H      -3.953787     -1.996695     -0.632214
  H      -4.953288     -3.687773      0.851538
  H      -4.215046     -3.868960      3.207578
  H      -2.456170     -2.350147      4.072199
  H      -1.444715     -0.668087      2.584381
90
Coordinates from ORCA-job CuphenDPEphos_ACN_T1_state E -4358.288093072187
  Cu      0.396900      0.596650      0.112846
  P       1.382235     -1.503126      0.381094
  P      -1.888546      0.080606     -0.130933
  O      -0.239788     -1.689679     -1.962292
  N       1.698332      1.568419     -1.060730
  N       0.230787      2.360828      1.016942
  C       2.328874      1.178228     -2.176365
  C       3.087973      2.034337     -2.951552
  C       3.222041      3.380215     -2.565963
  C       2.554424      3.832078     -1.434890
  C       2.586402      5.187835     -0.962412
  C       1.883822      5.575855      0.132028
  C       1.061661      4.652731      0.863584
  C       0.304254      4.987840      1.979254
  C      -0.467590      3.995337      2.612877
  C      -0.478397      2.715208      2.097902
  C       1.022173      3.308917      0.403696
  C       1.770271      2.901640     -0.699868
  C       0.298334     -2.894813     -0.010716
  C      -0.467043     -2.801546     -1.172850
  C      -1.385953     -3.779647     -1.517448
  C      -1.553205     -4.870013     -0.675698
  C      -0.808884     -4.980648      0.493899
  C       0.113059     -3.997542      0.822157
  C       1.928565     -1.734627      2.094515
  C       1.428500     -0.898858      3.092759
  C       1.830576     -1.065191      4.412574
  C       2.738706     -2.064861      4.740640
  C       3.249686     -2.896272      3.746879
  C       2.850760     -2.730735      2.428306
  C       2.886861     -1.715543     -0.604632
  C       2.952617     -2.579206     -1.695391
  C       4.104262     -2.630561     -2.473558
  C       5.193862     -1.825282     -2.164030
  C       5.134112     -0.967628     -1.068155
  C       3.985416     -0.908345     -0.295251
  C      -2.216663     -0.318459     -1.879690
  C      -1.331725     -1.124951     -2.601803
  C      -1.486645     -1.344233     -3.959133
  C      -2.565786     -0.773535     -4.623002
  C      -3.479886      0.004440     -3.922091
  C      -3.301221      0.234309     -2.564774
  C      -2.856897      1.583744      0.163831
  C      -2.489857      2.742258     -0.528872
  C      -3.144741      3.937234     -0.284164
  C      -4.165454      3.992124      0.663243
  C      -4.532009      2.844548      1.354517
  C      -3.880104      1.640405      1.106224
  C      -2.636708     -1.215377      0.881572
  C      -3.633472     -2.061142      0.397306
  C      -4.197800     -3.016277      1.232506
  C      -3.774984     -3.128338      2.552761
  C      -2.781104     -2.284891      3.039557
  C      -2.210048     -1.335440      2.204858
  H       2.227935      0.136360     -2.447641
  H       3.579537      1.653615     -3.835705
  H       3.828427      4.065334     -3.145286
  H       3.188822      5.904731     -1.507946
  H       1.924213      6.604219      0.471593
  H       0.309087      6.005372      2.349694
  H      -1.066399      4.222851      3.483483
  H      -1.087025      1.940742      2.547171
  H      -1.971345     -3.683735     -2.420858
  H      -2.276498     -5.632752     -0.933699
  H      -0.950540     -5.827214      1.152472
  H       0.678378     -4.078304      1.739496
  H       0.734069     -0.108721      2.842522
  H       1.439484     -0.409596      5.180062
  H       3.055028     -2.193359      5.768190
  H       3.961117     -3.672151      3.999622
  H       3.257480     -3.374486      1.659216
  H       2.113628     -3.213996     -1.944432
  H       4.148074     -3.303694     -3.320392
  H       6.088583     -1.865956     -2.772310
  H       5.980403     -0.339082     -0.821914
  H       3.939167     -0.226400      0.544359
  H      -0.767541     -1.963745     -4.478358
  H      -2.693313     -0.942924     -5.684326
  H      -4.328147      0.441791     -4.432217
  H      -4.004378      0.860917     -2.034983
  H      -1.683989      2.710828     -1.251082
  H      -2.853057      4.829874     -0.822664
  H      -4.670663      4.929127      0.861120
  H      -5.325387      2.882035      2.090247
  H      -4.169408      0.753105      1.652136
  H      -3.965947     -1.980245     -0.628749
  H      -4.965953     -3.675893      0.849439
  H      -4.216092     -3.875608      3.200360
  H      -2.445741     -2.370713      4.065221
  H      -1.433178     -0.684337      2.581654
90
Coordinates from ORCA-job CuphenDPEphos_ACN_T1_state E -4358.288099853118
  Cu      0.400476      0.595364      0.118818
  P       1.382059     -1.504910      0.385903
  P      -1.885738      0.081839     -0.127563
  O      -0.234761     -1.688013     -1.960115
  N       1.697615      1.565487     -1.061970
  N       0.232907      2.360897      1.016594
  C       2.325155      1.174004     -2.178828
  C       3.079024      2.030007     -2.959331
  C       3.211461      3.377209     -2.577819
  C       2.547054      3.830297     -1.445248
  C       2.578365      5.187126     -0.975743
  C       1.878984      5.576361      0.120349
  C       1.060539      4.653485      0.856416
  C       0.306168      4.989717      1.973874
  C      -0.462616      3.997455      2.611685
  C      -0.473727      2.716434      2.099016
  C       1.021284      3.308790      0.399053
  C       1.767101      2.900027     -0.705554
  C       0.297994     -2.895608     -0.008746
  C      -0.464362     -2.800769     -1.172780
  C      -1.382429     -3.778214     -1.521104
  C      -1.551770     -4.869739     -0.681054
  C      -0.810496     -4.981938      0.490297
  C       0.110673     -3.999215      0.822364
  C       1.928311     -1.739323      2.099153
  C       1.428523     -0.905001      3.098817
  C       1.830660     -1.073755      4.418387
  C       2.738483     -2.074308      4.744662
  C       3.249463     -2.903949      3.749361
  C       2.850577     -2.736018      2.431053
  C       2.887141     -1.714741     -0.599806
  C       2.953329     -2.578930     -1.690230
  C       4.104400     -2.628571     -2.469451
  C       5.192704     -1.820940     -2.161332
  C       5.132274     -0.962764     -1.065870
  C       3.984171     -0.905160     -0.291809
  C      -2.211222     -0.315694     -1.877502
  C      -1.325576     -1.120989     -2.599802
  C      -1.478589     -1.337714     -3.957764
  C      -2.556551     -0.765487     -4.622283
  C      -3.471732      0.011128     -3.921169
  C      -3.294996      0.238281     -2.563084
  C      -2.855617      1.584559      0.166923
  C      -2.488188      2.744431     -0.523090
  C      -3.144585      3.938475     -0.277632
  C      -4.167278      3.991027      0.667777
  C      -4.533961      2.842039      1.356794
  C      -3.880439      1.638878      1.107839
  C      -2.635522     -1.214980      0.883019
  C      -3.629246     -2.062619      0.395872
  C      -4.196002     -3.017040      1.230338
  C      -3.778574     -3.126434      2.552604
  C      -2.787640     -2.281058      3.042105
  C      -2.214183     -1.332196      2.208315
  H       2.226927      0.130880     -2.446327
  H       3.568125      1.648016     -3.844328
  H       3.814271      4.062177     -3.161038
  H       3.177803      5.903836     -1.524828
  H       1.919409      6.605386      0.457928
  H       0.311369      6.007806      2.342807
  H      -1.059033      4.226044      3.483664
  H      -1.080839      1.942235      2.550763
  H      -1.965849     -3.681101     -2.425696
  H      -2.274023     -5.632406     -0.942245
  H      -0.954084     -5.829268      1.147497
  H       0.673525     -4.080899      1.741092
  H       0.734515     -0.113919      2.849889
  H       1.439695     -0.419488      5.187091
  H       3.054643     -2.204832      5.772019
  H       3.960978     -3.680229      4.000704
  H       3.257393     -3.378209      1.660681
  H       2.115238     -3.215370     -1.938088
  H       4.148693     -3.302051     -3.316002
  H       6.086920     -1.860038     -2.770476
  H       5.977634     -0.332513     -0.820715
  H       3.937396     -0.222893      0.547523
  H      -0.758962     -1.956650     -4.476983
  H      -2.682391     -0.932788     -5.684148
  H      -4.319292      0.449512     -4.431591
  H      -3.999149      0.863538     -2.033114
  H      -1.680815      2.714977     -1.243695
  H      -2.852625      4.832262     -0.814114
  H      -4.673881      4.927253      0.865805
  H      -5.328706      2.877575      2.091155
  H      -4.169539      0.750538      1.652201
  H      -3.957170     -1.984083     -0.631860
  H      -4.962058     -3.677957      0.845240
  H      -4.221324     -3.873322      3.199534
  H      -2.456340     -2.364919      4.069277
  H      -1.439765     -0.679330      2.587222
90
Coordinates from ORCA-job CuphenDPEphos_ACN_T1_state E -4358.288107365028
  Cu      0.406274      0.594660      0.127856
  P       1.382832     -1.506484      0.393208
  P      -1.881867      0.084464     -0.122280
  O      -0.227997     -1.682418     -1.956873
  N       1.694967      1.561925     -1.066502
  N       0.236495      2.362592      1.014458
  C       2.318584      1.167024     -2.184244
  C       3.064495      2.022198     -2.973621
  C       3.193484      3.371898     -2.599896
  C       2.533650      3.828043     -1.465746
  C       2.563457      5.187027     -1.002281
  C       1.869230      5.578834      0.096259
  C       1.057409      4.656635      0.840679
  C       0.308725      4.995326      1.961314
  C      -0.454104      4.003528      2.607323
  C      -0.465254      2.720597      2.099603
  C       1.018832      3.310188      0.388547
  C       1.760480      2.898597     -0.717866
  C       0.298583     -2.895307     -0.007149
  C      -0.459787     -2.797208     -1.173548
  C      -1.376346     -3.773839     -1.527946
  C      -1.548145     -4.867962     -0.691430
  C      -0.811122     -4.983213      0.482190
  C       0.108682     -4.001007      0.820448
  C       1.926348     -1.746051      2.106787
  C       1.428622     -0.911579      3.107518
  C       1.828642     -1.084772      4.427285
  C       2.732076     -2.089723      4.752460
  C       3.241268     -2.919057      3.755968
  C       2.844646     -2.746887      2.437420
  C       2.889578     -1.713780     -0.590531
  C       2.958864     -2.581521     -1.678245
  C       4.110643     -2.629948     -2.456654
  C       5.196061     -1.817600     -2.150483
  C       5.132194     -0.955936     -1.058044
  C       3.983421     -0.899330     -0.284521
  C      -2.203864     -0.308876     -1.874005
  C      -1.317214     -1.112462     -2.596701
  C      -1.467760     -1.325581     -3.955646
  C      -2.544191     -0.751304     -4.620773
  C      -3.460681      0.023574     -3.919326
  C      -3.286560      0.247106     -2.560188
  C      -2.854484      1.585513      0.174521
  C      -2.487990      2.747754     -0.511767
  C      -3.145839      3.940452     -0.262594
  C      -4.168801      3.988957      0.682607
  C      -4.534370      2.837363      1.368162
  C      -3.879445      1.635637      1.115798
  C      -2.633249     -1.215499      0.883422
  C      -3.626261     -2.062001      0.393023
  C      -4.195527     -3.016894      1.225462
  C      -3.781025     -3.127878      2.548573
  C      -2.790399     -2.283842      3.041070
  C      -2.214676     -1.334128      2.209677
  H       2.224575      0.121682     -2.444664
  H       3.550509      1.637341     -3.859103
  H       3.790487      4.056195     -3.189844
  H       3.157717      5.903156     -1.557740
  H       1.909336      6.609201      0.429781
  H       0.314344      6.014587      2.327007
  H      -1.046335      4.234279      3.481602
  H      -1.068515      1.946750      2.557081
  H      -1.957338     -3.674007     -2.433806
  H      -2.268754     -5.630469     -0.957724
  H      -0.957213     -5.832178      1.136754
  H       0.667864     -4.084546      1.741198
  H       0.738383     -0.116734      2.859300
  H       1.439247     -0.430708      5.196979
  H       3.046177     -2.223984      5.779984
  H       3.949854     -3.698313      4.006486
  H       3.250058     -3.388798      1.666082
  H       2.122944     -3.221380     -1.924462
  H       4.157634     -3.305985     -3.301042
  H       6.090818     -1.855639     -2.758940
  H       5.975402     -0.322128     -0.814536
  H       3.933896     -0.214324      0.552423
  H      -0.747460     -1.943728     -4.474907
  H      -2.667864     -0.915793     -5.683352
  H      -4.307152      0.463660     -4.430124
  H      -3.991944      0.870774     -2.030095
  H      -1.680459      2.721523     -1.232295
  H      -2.854701      4.836249     -0.796207
  H      -4.676722      4.924002      0.882911
  H      -5.329380      2.869595      2.102410
  H      -4.167609      0.745458      1.657641
  H      -3.950955     -1.983108     -0.635729
  H      -4.961586     -3.676586      0.838212
  H      -4.225538     -3.875262      3.193749
  H      -2.460860     -2.369496      4.068687
  H      -1.440662     -0.682082      2.591062
90
Coordinates from ORCA-job CuphenDPEphos_ACN_T1_state E -4358.288112080583
  Cu      0.410346      0.594124      0.135187
  P       1.385035     -1.507490      0.397974
  P      -1.879655      0.085940     -0.119248
  O      -0.223550     -1.678887     -1.953754
  N       1.692245      1.560378     -1.068869
  N       0.237602      2.363087      1.013925
  C       2.314949      1.163116     -2.186084
  C       3.056364      2.017921     -2.980421
  C       3.181704      3.369316     -2.611905
  C       2.523242      3.827505     -1.477750
  C       2.550741      5.187973     -1.018528
  C       1.858869      5.581071      0.081091
  C       1.051833      4.658822      0.830830
  C       0.306670      4.998640      1.953504
  C      -0.451205      4.006450      2.605101
  C      -0.461060      2.722203      2.100978
  C       1.014946      3.311200      0.382373
  C       1.754271      2.898347     -0.725133
  C       0.300097     -2.894873     -0.005264
  C      -0.456696     -2.794563     -1.172454
  C      -1.373535     -3.770081     -1.529333
  C      -1.547122     -4.865302     -0.694493
  C      -0.811609     -4.982753      0.479768
  C       0.108486     -4.001562      0.820588
  C       1.927499     -1.750316      2.111453
  C       1.430259     -0.916729      3.113222
  C       1.829659     -1.092489      4.432882
  C       2.731825     -2.099038      4.756786
  C       3.240503     -2.927349      3.759225
  C       2.844596     -2.752730      2.440713
  C       2.892018     -1.714166     -0.585505
  C       2.962900     -2.584697     -1.671055
  C       4.114985     -2.633091     -2.449054
  C       5.198869     -1.817959     -2.144719
  C       5.133215     -0.953389     -1.054803
  C       3.984122     -0.896646     -0.281531
  C      -2.198701     -0.304182     -1.872247
  C      -1.311273     -1.107381     -2.594425
  C      -1.459715     -1.318926     -3.953985
  C      -2.534689     -0.743394     -4.620204
  C      -3.451953      0.031154     -3.919405
  C      -3.280107      0.253105     -2.559684
  C      -2.853457      1.586079      0.178995
  C      -2.487693      2.749187     -0.506150
  C      -3.145486      3.941588     -0.254604
  C      -4.167342      3.988665      0.691722
  C      -4.532181      2.836044      1.376052
  C      -3.877466      1.634656      1.121519
  C      -2.633605     -1.215826      0.882374
  C      -3.629924     -2.057589      0.390598
  C      -4.201762     -3.012676      1.221146
  C      -3.786418     -3.128536      2.543581
  C      -2.792207     -2.289497      3.037352
  C      -2.213991     -1.339455      2.207962
  H       2.224053      0.116348     -2.441872
  H       3.541823      1.631248     -3.865421
  H       3.775225      4.053332     -3.205699
  H       3.141426      5.904043     -1.577854
  H       1.897548      6.612431      0.411702
  H       0.311393      6.018767      2.316766
  H      -1.040905      4.238155      3.480846
  H      -1.060511      1.947952      2.562803
  H      -1.953683     -3.668331     -2.435509
  H      -2.267942     -5.626938     -0.962760
  H      -0.959162     -5.832470      1.133033
  H       0.666258     -4.086624      1.742035
  H       0.741013     -0.120628      2.865943
  H       1.440709     -0.439201      5.203468
  H       3.045262     -2.235401      5.784243
  H       3.948264     -3.707675      4.008790
  H       3.249562     -3.393881      1.668531
  H       2.128071     -3.226512     -1.915879
  H       4.163385     -3.311186     -3.291718
  H       6.093910     -1.856028     -2.752779
  H       5.975212     -0.317336     -0.812903
  H       3.933122     -0.209268      0.553386
  H      -0.738875     -1.936991     -4.472600
  H      -2.656666     -0.906727     -5.683171
  H      -4.297316      0.472381     -4.431073
  H      -3.986197      0.876551     -2.030308
  H      -1.681113      2.724039     -1.227750
  H      -2.855008      4.838117     -0.787357
  H      -4.675143      4.923419      0.893730
  H      -5.326531      2.867110      2.111080
  H      -4.165393      0.743817      1.662360
  H      -3.954872     -1.975322     -0.637811
  H      -4.970598     -3.668602      0.832986
  H      -4.233060     -3.875971      3.187245
  H      -2.461682     -2.379373      4.064298
  H      -1.437248     -0.691233      2.590485
90
Coordinates from ORCA-job CuphenDPEphos_ACN_T1_state E -4358.288115712963
  Cu      0.415386      0.593290      0.144625
  P       1.388632     -1.508718      0.403051
  P      -1.876922      0.087282     -0.115441
  O      -0.218631     -1.674047     -1.950149
  N       1.687909      1.559113     -1.071822
  N       0.239274      2.363234      1.014546
  C       2.309947      1.159084     -2.188050
  C       3.046364      2.013459     -2.987885
  C       3.166668      3.366789     -2.625601
  C       2.509237      3.827474     -1.491917
  C       2.532966      5.189795     -1.038242
  C       1.843500      5.584225      0.062426
  C       1.043086      4.661634      0.818996
  C       0.301940      5.002717      1.943957
  C      -0.448883      4.009647      2.602810
  C      -0.455871      2.723629      2.103760
  C       1.009527      3.312397      0.375695
  C       1.745710      2.898464     -0.733489
  C       0.302235     -2.894003     -0.003427
  C      -0.453506     -2.790685     -1.170920
  C      -1.371443     -3.764452     -1.530039
  C      -1.547204     -4.860810     -0.697216
  C      -0.812592     -4.981285      0.477283
  C       0.108607     -4.001907      0.820339
  C       1.929369     -1.755276      2.116457
  C       1.431018     -0.923731      3.119340
  C       1.829219     -1.102151      4.438989
  C       2.731166     -2.109313      4.761677
  C       3.240718     -2.935669      3.763012
  C       2.846074     -2.758438      2.444425
  C       2.895640     -1.716158     -0.580219
  C       2.968360     -2.589435     -1.663450
  C       4.121120     -2.638458     -2.440358
  C       5.203815     -1.821281     -2.137270
  C       5.136289     -0.953792     -1.049898
  C       3.986459     -0.896325     -0.277671
  C      -2.192950     -0.298208     -1.869907
  C      -1.304565     -1.100751     -2.591776
  C      -1.450515     -1.309948     -3.952092
  C      -2.523814     -0.732739     -4.619360
  C      -3.441896      0.041220     -3.919035
  C      -3.272645      0.260871     -2.558651
  C      -2.850864      1.586859      0.184998
  C      -2.486584      2.750121     -0.500696
  C      -3.143634      3.942606     -0.247109
  C      -4.162961      3.989441      0.701814
  C      -4.526372      2.836594      1.386481
  C      -3.872602      1.635112      1.129995
  C      -2.634279     -1.216496      0.881138
  C      -3.633366     -2.053604      0.387173
  C      -4.207859     -3.009523      1.214970
  C      -3.792278     -3.130896      2.536792
  C      -2.794932     -2.296879      3.032716
  C      -2.214074     -1.346053      2.206030
  H       2.222207      0.110850     -2.438818
  H       3.531671      1.624797     -3.872084
  H       3.755971      4.050579     -3.223870
  H       3.118811      5.906047     -1.602377
  H       1.879183      6.616992      0.388945
  H       0.304140      6.024171      2.303426
  H      -1.035659      4.242267      3.480277
  H      -1.049683      1.948535      2.571471
  H      -1.950737     -3.660171     -2.436461
  H      -2.269118     -5.620829     -0.967106
  H      -0.961566     -5.831944      1.128989
  H       0.665684     -4.089435      1.741991
  H       0.741679     -0.127403      2.873010
  H       1.439545     -0.450391      5.210497
  H       3.043695     -2.247698      5.789138
  H       3.948195     -3.716534      4.011687
  H       3.251598     -3.398196      1.671411
  H       2.134361     -3.232670     -1.907436
  H       4.171007     -3.318624     -3.281259
  H       6.099464     -1.860014     -2.744398
  H       5.977259     -0.315965     -0.809111
  H       3.933927     -0.206546      0.555187
  H      -0.728908     -1.927571     -4.470158
  H      -2.643895     -0.894342     -5.682811
  H      -4.286003      0.483897     -4.431532
  H      -3.979389      0.884111     -2.029896
  H      -1.682104      2.725142     -1.224601
  H      -2.854369      4.839195     -0.780406
  H      -4.669976      4.924244      0.905587
  H      -5.318987      2.867463      2.123396
  H      -4.160007      0.744236      1.670991
  H      -3.958402     -1.967238     -0.640870
  H      -4.978834     -3.661885      0.825074
  H      -4.241229     -3.878768      3.178350
  H      -2.463989     -2.391326      4.059108
  H      -1.434756     -0.701990      2.590413
90
Coordinates from ORCA-job CuphenDPEphos_ACN_T1_state E -4358.288118174652
  Cu      0.417827      0.591901      0.150954
  P       1.392667     -1.509831      0.404716
  P      -1.875795      0.086726     -0.114415
  O      -0.216091     -1.674225     -1.947271
  N       1.685142      1.559588     -1.070660
  N       0.238382      2.361286      1.017885
  C       2.308326      1.159524     -2.185925
  C       3.043355      2.014621     -2.986498
  C       3.160191      3.368472     -2.625765
  C       2.501524      3.829196     -1.492892
  C       2.521820      5.192060     -1.040981
  C       1.831811      5.585803      0.059572
  C       1.034697      4.661933      0.818111
  C       0.294086      5.002287      1.943642
  C      -0.452762      4.007605      2.604844
  C      -0.456343      2.720993      2.107785
  C       1.004610      3.312140      0.376624
  C       1.740201      2.899247     -0.733317
  C       0.304715     -2.894127     -0.000767
  C      -0.452366     -2.790000     -1.167196
  C      -1.372903     -3.762076     -1.524355
  C      -1.549765     -4.857552     -0.690779
  C      -0.813324     -4.979101      0.482540
  C       0.110334     -4.001479      0.823593
  C       1.934984     -1.757347      2.117352
  C       1.433909     -0.929235      3.121674
  C       1.833108     -1.108225      4.440881
  C       2.738770     -2.112617      4.761764
  C       3.250750     -2.935787      3.761742
  C       2.855047     -2.757942      2.443575
  C       2.897886     -1.718416     -0.580931
  C       2.969609     -2.592355     -1.663533
  C       4.121538     -2.641988     -2.441547
  C       5.204621     -1.824734     -2.140167
  C       5.138237     -0.956401     -1.053371
  C       3.989165     -0.898395     -0.280185
  C      -2.189700     -0.297319     -1.869521
  C      -1.300821     -1.100512     -2.590269
  C      -1.445082     -1.309672     -3.950758
  C      -2.517135     -0.731834     -4.619458
  C      -3.435537      0.042802     -3.920379
  C      -3.267924      0.262405     -2.559846
  C      -2.847890      1.587535      0.184814
  C      -2.482466      2.749578     -0.502480
  C      -3.137850      3.943191     -0.250240
  C      -4.156767      3.992519      0.699024
  C      -4.521356      2.841035      1.385179
  C      -3.869236      1.638383      1.129960
  C      -2.637515     -1.216183      0.879997
  C      -3.641613     -2.047090      0.385633
  C      -4.219242     -3.002540      1.211671
  C      -3.801929     -3.129607      2.532414
  C      -2.799606     -2.301917      3.028824
  C      -2.215547     -1.351728      2.203641
  H       2.222086      0.110987     -2.435882
  H       3.529935      1.626094     -3.870039
  H       3.748037      4.052907     -3.224761
  H       3.105417      5.909249     -1.606231
  H       1.864443      6.619124      0.384652
  H       0.293260      6.024284      2.301514
  H      -1.039021      4.239488      3.482851
  H      -1.046666      1.944526      2.577678
  H      -1.952992     -3.657064     -2.430189
  H      -2.274070     -5.615914     -0.958851
  H      -0.962700     -5.829291      1.134750
  H       0.668914     -4.090004      1.744279
  H       0.741276     -0.135362      2.876838
  H       1.441388     -0.458994      5.213475
  H       3.052289     -2.251273      5.788879
  H       3.960811     -3.714725      4.009040
  H       3.262360     -3.395321      1.669545
  H       2.135267     -3.235664     -1.906279
  H       4.170547     -3.322747     -3.282006
  H       6.099649     -1.864069     -2.748158
  H       5.979421     -0.318383     -0.813899
  H       3.937516     -0.207970      0.552217
  H      -0.723074     -1.927696     -4.467772
  H      -2.636018     -0.893437     -5.683038
  H      -4.278701      0.485982     -4.433985
  H      -3.974863      0.886332     -2.032108
  H      -1.678398      2.722697     -1.226765
  H      -2.847652      4.838654     -0.784898
  H      -4.662431      4.928219      0.902018
  H      -5.313666      2.873880      2.122336
  H      -4.157868      0.748601      1.672095
  H      -3.968420     -1.955986     -0.641443
  H      -4.993870     -3.650238      0.821254
  H      -4.253543     -3.876935      3.172730
  H      -2.467415     -2.400754      4.054385
  H      -1.432218     -0.712781      2.588426
90
Coordinates from ORCA-job CuphenDPEphos_ACN_T1_state E -4358.288118766744
  Cu      0.419559      0.590823      0.155133
  P       1.394938     -1.510594      0.405565
  P      -1.874488      0.086238     -0.113371
  O      -0.214333     -1.673988     -1.946150
  N       1.683249      1.559836     -1.070101
  N       0.239504      2.360181      1.021139
  C       2.305835      1.159931     -2.185559
  C       3.039021      2.015492     -2.987426
  C       3.153981      3.369672     -2.627812
  C       2.495808      3.830323     -1.494664
  C       2.514072      5.193585     -1.044101
  C       1.824627      5.586958      0.056910
  C       1.030462      4.662311      0.817553
  C       0.290480      5.002454      1.943570
  C      -0.453519      4.006911      2.606775
  C      -0.454875      2.719767      2.111383
  C       1.002709      3.311982      0.377683
  C       1.737002      2.899705     -0.733337
  C       0.305842     -2.894058      0.000351
  C      -0.451748     -2.789370     -1.165644
  C      -1.373507     -3.760529     -1.522141
  C      -1.551061     -4.855656     -0.688390
  C      -0.813936     -4.977861      0.484539
  C       0.110877     -4.001196      0.824864
  C       1.937437     -1.758849      2.117935
  C       1.433788     -0.933226      3.122995
  C       1.832471     -1.112898      4.442214
  C       2.740243     -2.115573      4.762464
  C       3.254673     -2.936396      3.761764
  C       2.859396     -2.757822      2.443603
  C       2.899333     -1.720101     -0.581044
  C       2.970622     -2.594068     -1.663470
  C       4.122268     -2.644083     -2.441843
  C       5.205692     -1.827173     -2.140922
  C       5.139891     -0.958731     -1.054077
  C       3.991076     -0.900446     -0.280713
  C      -2.187721     -0.296746     -1.868798
  C      -1.298604     -1.099750     -2.589518
  C      -1.442134     -1.308072     -3.950139
  C      -2.513734     -0.729650     -4.619143
  C      -3.432374      0.044730     -3.920107
  C      -3.265369      0.263491     -2.559399
  C      -2.844802      1.588225      0.185287
  C      -2.479130      2.749244     -0.503702
  C      -3.133793      3.943452     -0.253031
  C      -4.152435      3.994671      0.696532
  C      -4.517180      2.844402      1.384496
  C      -3.865692      1.641094      1.130667
  C      -2.638427     -1.216106      0.880036
  C      -3.642702     -2.046081      0.384427
  C      -4.221687     -3.001655      1.209294
  C      -3.805556     -3.129884      2.530303
  C      -2.803042     -2.303179      3.027995
  C      -2.217597     -1.352995      2.203824
  H       2.220240      0.111259     -2.435160
  H       3.525371      1.627170     -3.871171
  H       3.740072      4.054607     -3.227966
  H       3.095541      5.911410     -1.610724
  H       1.855298      6.620715      0.380798
  H       0.287581      6.024940      2.299996
  H      -1.039207      4.238501      3.485238
  H      -1.042917      1.942541      2.582888
  H      -1.953642     -3.655042     -2.427900
  H      -2.276381     -5.613247     -0.955836
  H      -0.963631     -5.827898      1.136862
  H       0.670181     -4.090320      1.745087
  H       0.739329     -0.140822      2.878723
  H       1.438746     -0.465526      5.215337
  H       3.053532     -2.254639      5.789586
  H       3.966157     -3.714174      4.008576
  H       3.268501     -3.393490      1.669108
  H       2.136054     -3.237228     -1.905871
  H       4.170814     -3.324958     -3.282225
  H       6.100458     -1.866851     -2.749256
  H       5.981309     -0.320948     -0.814868
  H       3.939909     -0.210036      0.551747
  H      -0.719902     -1.925882     -4.467088
  H      -2.632098     -0.890566     -5.682875
  H      -4.275231      0.488260     -4.433899
  H      -3.972398      0.887279     -2.031593
  H      -1.675393      2.720975     -1.228312
  H      -2.843375      4.837949     -0.789168
  H      -4.657627      4.930853      0.898434
  H      -5.309136      2.878725      2.121957
  H      -4.154440      0.752218      1.674262
  H      -3.968874     -1.953872     -0.642758
  H      -4.996346     -3.648608      0.817726
  H      -4.258201     -3.877301      3.169771
  H      -2.471908     -2.402726      4.053820
  H      -1.434013     -0.714998      2.589614
90
Coordinates from ORCA-job CuphenDPEphos_ACN_T1_state E -4358.288120027279
  Cu      0.419894      0.589685      0.157221
  P       1.396733     -1.511180      0.405206
  P      -1.874051      0.085211     -0.113962
  O      -0.213602     -1.676320     -1.945401
  N       1.682771      1.560517     -1.067751
  N       0.239274      2.358558      1.024610
  C       2.305254      1.161864     -2.183658
  C       3.037799      2.018374     -2.985102
  C       3.151969      3.372369     -2.624612
  C       2.493744      3.831852     -1.491006
  C       2.510823      5.194907     -1.039836
  C       1.821023      5.587196      0.061328
  C       1.027779      4.661546      0.821654
  C       0.287125      5.000660      1.947535
  C      -0.456116      4.004240      2.610242
  C      -0.455927      2.717192      2.114626
  C       1.001509      3.311277      0.381433
  C       1.735857      2.900228     -0.729993
  C       0.306972     -2.894598      0.001918
  C      -0.451711     -2.790573     -1.163416
  C      -1.374853     -3.761156     -1.517789
  C      -1.552539     -4.855138     -0.682587
  C      -0.814069     -4.976852      0.489600
  C       0.112031     -4.000716      0.827797
  C       1.940954     -1.759068      2.117031
  C       1.435167     -0.935820      3.122998
  C       1.834450     -1.115601      4.441995
  C       2.745036     -2.116046      4.761226
  C       3.261592     -2.934515      3.759679
  C       2.865602     -2.755833      2.441770
  C       2.899803     -1.720726     -0.583225
  C       2.969711     -2.594474     -1.665829
  C       4.120362     -2.644513     -2.445676
  C       5.204271     -1.827825     -2.146010
  C       5.139942     -0.959570     -1.058835
  C       3.992121     -0.901321     -0.284121
  C      -2.186757     -0.298607     -1.869322
  C      -1.297693     -1.102267     -2.589375
  C      -1.440921     -1.311304     -3.949839
  C      -2.512213     -0.732930     -4.619478
  C      -3.430796      0.042131     -3.921125
  C      -3.263996      0.261570     -2.560498
  C      -2.842573      1.588713      0.182587
  C      -2.474853      2.748837     -0.506900
  C      -3.128506      3.943892     -0.258147
  C      -4.148430      3.997079      0.690038
  C      -4.515163      2.847850      1.378613
  C      -3.864535      1.643674      1.126614
  C      -2.640251     -1.215474      0.879781
  C      -3.646449     -2.043209      0.384153
  C      -4.227214     -2.997890      1.208717
  C      -3.811009     -3.127511      2.529610
  C      -2.806707     -2.303016      3.027332
  C      -2.219489     -1.353731      2.203379
  H       2.220060      0.113391     -2.434281
  H       3.524177      1.631029     -3.869257
  H       3.737437      4.058122     -3.224442
  H       3.091603      5.913525     -1.606161
  H       1.850604      6.620874      0.385576
  H       0.282975      6.023098      2.304086
  H      -1.042242      4.235002      3.488632
  H      -1.043258      1.939179      2.585744
  H      -1.955799     -3.656139     -2.423092
  H      -2.278941     -5.612302     -0.948276
  H      -0.963808     -5.826080      1.142962
  H       0.672405     -4.089325      1.747433
  H       0.738433     -0.145158      2.879605
  H       1.438993     -0.470081      5.215779
  H       3.058859     -2.255157      5.788176
  H       3.975181     -3.710611      4.005687
  H       3.276275     -3.389743      1.666657
  H       2.134791     -3.237564     -1.907224
  H       4.167747     -3.325284     -3.286206
  H       6.098207     -1.867516     -2.755553
  H       5.981770     -0.321995     -0.820543
  H       3.942103     -0.211150      0.548614
  H      -0.718776     -1.929608     -4.466320
  H      -2.630363     -0.894351     -5.683152
  H      -4.273386      0.485574     -4.435419
  H      -3.970905      0.885836     -2.033076
  H      -1.670174      2.719093     -1.230426
  H      -2.836445      4.837611     -0.794687
  H      -4.652998      4.933922      0.890405
  H      -5.307958      2.883702      2.115093
  H      -4.154628      0.755543      1.670752
  H      -3.972830     -1.949810     -0.642861
  H      -5.003336     -3.643035      0.817053
  H      -4.264976     -3.874279      3.168889
  H      -2.475633     -2.403550      4.053078
  H      -1.434535     -0.717388      2.589122
