90
Coordinates from ORCA-job CuphenDPEphos_ACN_S0_state
  Cu  0.65370887091570      0.22943311443969      0.28168155870332
  P   1.45998077212231     -1.84569800905267      0.09252095213705
  P   -1.61278391465577      0.41465103848383     -0.11285144781276
  O   -0.56229209228582     -1.68628614554716     -1.97218568582243
  N   1.41571896976960      1.76985345770152     -0.91654331340070
  N   0.87960468425436      1.73083345548597      1.73833859519588
  C   1.64764680284580      1.76900151424412     -2.21884023538606
  C   1.94331448599215      2.93528276315061     -2.93375769110192
  C   1.99024964519202      4.13592011884769     -2.26344055636371
  C   1.73777933282334      4.16675766460432     -0.88108685697747
  C   1.72147763367086      5.37549263891140     -0.11835939804707
  C   1.42222347837622      5.36052348731086      1.20393048814543
  C   1.12510080711869      4.13554306146475      1.87800882319890
  C   0.78497298365501      4.07674919220167      3.24034143040653
  C   0.49851981203539      2.85987332114220      3.81213741670534
  C   0.55685247141063      1.70717519434616      3.02110531947238
  C   1.15556305136658      2.92281453177566      1.16096264109821
  C   1.45618497597706      2.94130095395410     -0.24435520348530
  C   0.06540271878205     -2.99798506966651     -0.11905839889802
  C   -0.88970957555800     -2.69842860488442     -1.09525360239301
  C   -2.08284632600828     -3.39864723180104     -1.18265515509529
  C   -2.32809580514590     -4.43321796145243     -0.28806298155695
  C   -1.38324787134854     -4.76906650082656      0.67317675485937
  C   -0.19574323717350     -4.05229197792042      0.75346951988220
  C   2.39668554952053     -2.56166501948074      1.48016043739486
  C   2.15211579446572     -2.06013876764226      2.75950449512519
  C   2.81297787177542     -2.58849914557035      3.86182787179059
  C   3.73556172209990     -3.61572362184256      3.69110243786949
  C   3.99170835835882     -4.11412888821313      2.41686317143666
  C   3.32377688563204     -3.59197635839600      1.31588474544384
  C   2.53475072049358     -2.11280028105043     -1.35261258001029
  C   2.38466878184605     -3.18751533599843     -2.22765347031680
  C   3.23636944430922     -3.32743773695244     -3.31802565935925
  C   4.24897931010797     -2.39934599852267     -3.53756366509331
  C   4.40605295305598     -1.32591302013730     -2.66516063808339
  C   3.54869156611629     -1.17998589216426     -1.58269971816229
  C   -2.19057694540154      0.08204381495433     -1.81197741401684
  C   -1.57606814198035     -0.93793845149997     -2.54513142230446
  C   -1.90867623772467     -1.19075396371873     -3.86615737790570
  C   -2.89646767373261     -0.43069626941920     -4.47932040155475
  C   -3.54359236904040      0.57183792322302     -3.76493388523060
  C   -3.18918595039844      0.82455026417575     -2.44627638433016
  C   -2.08624593029538      2.13974921481524      0.21186450485432
  C   -1.71220608353417      3.13867557763435     -0.69376472761079
  C   -1.86865231193281      4.47802959465959     -0.36968007559702
  C   -2.38181201617434      4.84182263200709      0.87140351109614
  C   -2.74936094444315      3.85615211078720      1.77935370150380
  C   -2.60542516884224      2.51247472076072      1.45227529388736
  C   -2.69383878102262     -0.59615843611658      0.94691987894411
  C   -4.05781780868241     -0.75426372955942      0.69552573295774
  C   -4.83382392342030     -1.54780796033053      1.52875722484764
  C   -4.25400284848563     -2.18804024480785      2.62178333190375
  C   -2.89723317078997     -2.03221422841302      2.87819181220977
  C   -2.11924493585399     -1.24106102537507      2.04100554894155
  H   1.59438289001737      0.81109625412260     -2.72011249780085
  H   2.12620687218762      2.87774350048878     -3.99797785789983
  H   2.20924734571594      5.05887105302231     -2.78610479488461
  H   1.93871649828172      6.30706509836238     -0.62586865115841
  H   1.39545753742801      6.27995802103155      1.77534416960890
  H   0.74810812506908      4.99014245565138      3.82089403655129
  H   0.22834564362896      2.77735609795711      4.85590143659972
  H   0.32740901924784      0.73829713631413      3.44592801830423
  H   -2.81330821321642     -3.13692039558360     -1.93529478097296
  H   -3.26145255878497     -4.97820233680058     -0.34998141039712
  H   -1.57319887449823     -5.57747509539338      1.36709824079848
  H   0.52449337046222     -4.29931569026015      1.52081557848266
  H   1.44076255949355     -1.25499325296079      2.89060822839385
  H   2.61365556540088     -2.19406710594536      4.85039351204340
  H   4.25751866888913     -4.02399703424539      4.54754848684953
  H   4.71164755115250     -4.91150126878050      2.28041195116739
  H   3.52636136652648     -3.98796510937638      0.32938126927315
  H   1.60240470227675     -3.91687398327411     -2.06282656819371
  H   3.10906343827584     -4.16363765572419     -3.99436204133137
  H   4.91125800069544     -2.50965174753445     -4.38721388986552
  H   5.19007958815505     -0.59819223964176     -2.83374122219115
  H   3.66327111173637     -0.33448151972849     -0.91530011119093
  H   -1.39631362034635     -1.98327954619948     -4.39569053147022
  H   -3.16206445166084     -0.62581693585348     -5.51040154305011
  H   -4.32000095690429      1.16189523412083     -4.23471124194547
  H   -3.68674875383639      1.61813144115564     -1.90615852517669
  H   -1.29100706641999      2.87156695766729     -1.65418394748471
  H   -1.57486456742110      5.23877355990582     -1.08159364446211
  H   -2.48980086432463      5.88769036399198      1.12966712991322
  H   -3.14715989669237      4.13072618886938      2.74841111802715
  H   -2.88882603591644      1.75550461417404      2.17135180005946
  H   -4.51554317041370     -0.26570542390054     -0.15477692098253
  H   -5.89038485000323     -1.67033450827366      1.32528563909575
  H   -4.86014463493112     -2.81083832648639      3.26787578741801
  H   -2.44095740130507     -2.53404515907856      3.72213549560394
  H   -1.05913432812404     -1.13266912651366      2.22948902817309
